itemName,deliveryDate,credited
Zucchini,"Saturday, 04 March 2017",true
Celery,"Saturday, 04 March 2017",true
Sugar tomato,"Saturday, 04 February 2017",true
Coriander,"Saturday, 04 February 2017",true
Horenzo,"Wednesday, 22 February 2017",true
Green Romaine,"Saturday, 11 February 2017",true
Italian Parsley,"Wednesday, 01 February 2017",true
Coriander,"Wednesday, 01 February 2017",true
Sugar tomato,"Saturday, 28 January 2017",true
Rosemary,"Wednesday, 01 February 2017",true
Horenzo,"Wednesday, 22 February 2017",true
Kale Nero,"Tuesday, 14 February 2017",true
Pak Choy,"Tuesday, 14 February 2017",true
Sugar tomato,"Saturday, 04 February 2017",true
Fennel,"Tuesday, 14 February 2017",true
Keffir Lime,"Tuesday, 14 February 2017",true
Rosemary,"Wednesday, 01 February 2017",true
A Chicken Salad,"Wednesday, 08 February 2017",true
Banana,"Saturday, 25 February 2017",true
Strawberry,"Saturday, 28 January 2017",true
Sugar tomato,"Wednesday, 08 February 2017",true
Ginger,"Wednesday, 08 February 2017",true
Curly Lettuce,"Saturday, 04 February 2017",true
Sugar tomato,"Saturday, 04 February 2017",true
Leek,"Saturday, 04 February 2017",true
Coriander,"Wednesday, 01 February 2017",true
Green Romaine,"Saturday, 11 February 2017",true
Cherry Tomato,"Saturday, 28 January 2017",true
Blueberries,"Wednesday, 08 February 2017",true
Salanova Lettuce,"Saturday, 04 February 2017",true
Sugar tomato,"Saturday, 04 February 2017",true
Sugar tomato,"Wednesday, 08 February 2017",true
Horenzo,"Saturday, 18 February 2017",true
Sugar tomato,"Saturday, 28 January 2017",true
Strawberry,"Saturday, 28 January 2017",true
Sugar tomato,"Saturday, 11 February 2017",true
Blueberries,"Wednesday, 08 February 2017",true
Blueberries,"Saturday, 11 February 2017",true
Dill,"Saturday, 04 March 2017",true
Horenzo,"Saturday, 18 February 2017",true
Green Romaine,"Saturday, 18 February 2017",true
Papaya Flowers,"Wednesday, 22 February 2017",true
Strawberry,"Saturday, 28 January 2017",true
Beans,"Wednesday, 08 February 2017",true
Beans,"Wednesday, 08 February 2017",true
Banana,"Wednesday, 01 March 2017",true
Horenzo,"Saturday, 18 February 2017",true
Pare,"Saturday, 04 March 2017",true
Beans,"Saturday, 04 March 2017",true
Raspberry,"Saturday, 04 March 2017",true
Baby Carrot,"Saturday, 04 March 2017",true
Mint,"Wednesday, 01 February 2017",true
Coriander,"Wednesday, 01 February 2017",true
Organic Tofu ,"Wednesday, 01 February 2017",true
Eggplant,"Wednesday, 08 February 2017",true
Avocado,"Wednesday, 08 February 2017",true
Papaya Flowers,"Wednesday, 01 March 2017",true
Lemon,"Wednesday, 25 January 2017",true
Tempe Organik,"Wednesday, 22 February 2017",true
Celery,"Wednesday, 25 January 2017",true
Green Spinach,"Wednesday, 25 January 2017",true
Coriander,"Wednesday, 25 January 2017",true
Sugar tomato,"Wednesday, 08 February 2017",true
Sugar tomato,"Saturday, 04 February 2017",true
Endive,"Saturday, 04 February 2017",true
Coriander,"Saturday, 04 February 2017",true
Strawberry,"Saturday, 28 January 2017",true
Organic Tofu ,"Wednesday, 01 February 2017",true
Cherry Tomato,"Saturday, 28 January 2017",true
Sugar tomato,"Saturday, 04 February 2017",true
Dill,"Saturday, 04 February 2017",true
Coriander,"Saturday, 04 February 2017",true
Green Romaine,"Saturday, 04 February 2017",true
Sugar tomato,"Saturday, 04 February 2017",true
Pare,"Wednesday, 01 February 2017",true
Mint,"Wednesday, 01 February 2017",true
Sugar tomato,"Saturday, 04 February 2017",true
Sugar tomato,"Saturday, 28 January 2017",true
Tempe Organik,"Wednesday, 22 February 2017",true
Turmeric,"Tuesday, 14 February 2017",true
Sugar tomato,"Saturday, 04 February 2017",true
Leek,"Wednesday, 08 February 2017",true
Coriander,"Wednesday, 01 February 2017",true
Cabbage,"Saturday, 11 February 2017",true
Keffir Lime,"Saturday, 11 February 2017",true
Avocado,"Wednesday, 08 February 2017",true
Blueberries,"Wednesday, 08 February 2017",true
Raspberry,"Wednesday, 22 February 2017",true
Tempe Organik,"Wednesday, 22 February 2017",true
Endive,"Saturday, 04 February 2017",true
Red Spinach,"Wednesday, 01 March 2017",true
Horenzo,"Saturday, 18 February 2017",true
Red Spinach,"Saturday, 18 February 2017",true
Cherry Tomato,"Wednesday, 01 February 2017",true
Oyong,"Wednesday, 01 February 2017",true
Watercress,"Wednesday, 08 February 2017",true
Oyong,"Wednesday, 01 March 2017",true
Sugar tomato,"Saturday, 28 January 2017",true
Coriander,"Saturday, 04 February 2017",true
Kale Nero,"Tuesday, 14 February 2017",true
Kale Nero,"Tuesday, 14 February 2017",true
Organic Tofu ,"Wednesday, 01 February 2017",true
Coriander,"Wednesday, 08 February 2017",true
Sugar tomato,"Saturday, 28 January 2017",true
Broccoli,"Saturday, 11 February 2017",true
Sugar tomato,"Saturday, 11 February 2017",true
Cabbage,"Saturday, 11 February 2017",true
Baby Corn,"Wednesday, 08 February 2017",true
Coriander,"Wednesday, 08 February 2017",true
Banana,"Wednesday, 01 March 2017",true
Turmeric,"Tuesday, 14 February 2017",true
Raspberry,"Wednesday, 22 February 2017",true
Kale Nero,"Tuesday, 14 February 2017",true
Pak Choy,"Tuesday, 14 February 2017",true
Tempe Organik,"Wednesday, 22 February 2017",true
Coriander,"Wednesday, 25 January 2017",true
Raspberry,"Wednesday, 01 March 2017",true
Papaya Flowers,"Wednesday, 22 February 2017",true
Papaya Flowers,"Wednesday, 01 March 2017",true
Papaya Flowers,"Wednesday, 22 February 2017",true
Tempe Organik,"Wednesday, 22 February 2017",true
Baby Carrot,"Wednesday, 08 February 2017",true
Watercress,"Saturday, 04 February 2017",true
Leek,"Saturday, 11 February 2017",true
Leek,"Wednesday, 08 February 2017",true
Celery,"Wednesday, 25 January 2017",true
Rosemary,"Saturday, 11 February 2017",true
Blueberries,"Saturday, 11 February 2017",true
Kale Nero,"Tuesday, 14 February 2017",true
Ginger,"Wednesday, 08 February 2017",true
Sugar tomato,"Saturday, 04 February 2017",true
Salanova Lettuce,"Saturday, 04 February 2017",true
Blueberries,"Saturday, 11 February 2017",true
Sugar tomato,"Wednesday, 08 February 2017",true
Cherry Tomato,"Wednesday, 08 February 2017",true
Papaya Flowers,"Wednesday, 01 March 2017",true
Coriander,"Wednesday, 01 February 2017",true
Papaya Flowers,"Wednesday, 22 February 2017",true
Tempe Organik,"Wednesday, 22 February 2017",true
Curly Kale,"Saturday, 04 February 2017",true
Ginger,"Wednesday, 08 February 2017",true
Leek,"Wednesday, 08 February 2017",true
Monster Avocado,"Wednesday, 01 February 2017",true
Leek,"Wednesday, 01 February 2017",true
Organic Tofu ,"Wednesday, 01 February 2017",true
Raspberry,"Wednesday, 01 March 2017",true
Banana,"Wednesday, 01 March 2017",true
Galia Melon,"Wednesday, 01 March 2017",true
Italian Cantaloupe,"Wednesday, 01 March 2017",true
Italian Cantaloupe,"Saturday, 18 February 2017",true
Organic Tofu ,"Wednesday, 01 February 2017",true
Organic Tofu ,"Wednesday, 01 February 2017",true
Sugar tomato,"Saturday, 04 February 2017",true
Curly Lettuce,"Saturday, 04 February 2017",true
Kale Nero,"Tuesday, 14 February 2017",true
Curly Lettuce,"Saturday, 04 February 2017",true
Sugar tomato,"Saturday, 04 February 2017",true
Coriander,"Saturday, 04 February 2017",true
Leek,"Saturday, 04 February 2017",true
Curly Lettuce,"Saturday, 25 February 2017",true
Zucchini,"Wednesday, 01 March 2017",true
Beef Tomato,"Wednesday, 08 February 2017",true
Sugar tomato,"Wednesday, 08 February 2017",true
Coriander,"Wednesday, 08 February 2017",true
Yellow Paprika,"Wednesday, 08 February 2017",true
Pak Choy,"Saturday, 04 March 2017",true
Coriander,"Wednesday, 08 February 2017",true
Curly Lettuce,"Wednesday, 08 February 2017",true
Pare,"Saturday, 04 February 2017",true
Red Raddish,"Tuesday, 14 February 2017",true
Organic Tofu ,"Wednesday, 01 February 2017",true
Blackberry,"Wednesday, 22 February 2017",true
Raspberry,"Wednesday, 22 February 2017",true
Tempe Organik,"Wednesday, 22 February 2017",true
Red Spinach,"Wednesday, 01 March 2017",true
Blueberries,"Saturday, 11 February 2017",true
Green Spinach,"Wednesday, 25 January 2017",true
Coriander,"Wednesday, 25 January 2017",true
Butternut Pumpkin,"Tuesday, 14 February 2017",true
Rosella,"Wednesday, 01 February 2017",true
Coriander,"Wednesday, 08 February 2017",true
Carrot,"Wednesday, 08 February 2017",true
Long beans,"Wednesday, 08 February 2017",true
Eggplant,"Wednesday, 08 February 2017",true
Water Spinach,"Wednesday, 08 February 2017",true
Labu Siam,"Wednesday, 08 February 2017",true
Coriander,"Wednesday, 08 February 2017",true
Endive,"Saturday, 28 January 2017",true
Watercress,"Saturday, 28 January 2017",true
Red Spinach,"Saturday, 18 February 2017",true
Monster Avocado,"Wednesday, 01 February 2017",true
Trio Lettuce,"Saturday, 11 February 2017",true
Kailan,"Saturday, 11 February 2017",true
Horenzo,"Saturday, 18 February 2017",true
Sugar tomato,"Saturday, 28 January 2017",true
Ginger,"Wednesday, 08 February 2017",true
Leek,"Wednesday, 08 February 2017",true
Tahu Premium,"Saturday, 04 March 2017",true
Cauliflower,"Saturday, 04 March 2017",true
Pare,"Saturday, 04 March 2017",true
Green Spinach,"Saturday, 04 March 2017",true
Dill,"Saturday, 04 March 2017",true
Kailan,"Saturday, 04 March 2017",true
Broccoli,"Saturday, 04 March 2017",true
Banana,"Saturday, 04 March 2017",true
Oyong,"Saturday, 04 March 2017",true
Trio Lettuce,"Saturday, 04 March 2017",true
Papaya Flowers,"Wednesday, 08 March 2017",true
Papaya Flowers,"Saturday, 11 March 2017",true
Basil,"Wednesday, 08 March 2017",true
White Raddish,"Wednesday, 08 March 2017",true
Tempe Organik,"Wednesday, 08 March 2017",true
Papaya Flowers,"Wednesday, 08 March 2017",true
Raspberry,"Wednesday, 08 March 2017",true
Papaya Flowers,"Wednesday, 08 March 2017",true
Tempe Organik,"Wednesday, 08 March 2017",true
Papaya Flowers,"Saturday, 11 March 2017",true
Dill,"Saturday, 11 March 2017",true
Keffir Lime,"Saturday, 18 March 2017",true
Basil,"Saturday, 18 March 2017",true
Blueberries,"Saturday, 18 March 2017",true
Salanova Lettuce,"Saturday, 18 March 2017",true
Keffir Lime,"Saturday, 18 March 2017",true
Endive,"Saturday, 18 March 2017",true
Blueberries,"Saturday, 18 March 2017",true
Endive,"Saturday, 18 March 2017",true
Ginger,"Saturday, 18 March 2017",true
Lemon,"Saturday, 18 March 2017",true
Ginger,"Saturday, 18 March 2017",true
Blueberries,"Saturday, 18 March 2017",true
Curly Lettuce,"Wednesday, 22 March 2017",true
Blueberries,"Wednesday, 22 March 2017",true
Blueberries,"Saturday, 18 March 2017",true
Blueberries,"Saturday, 18 March 2017",true
Blueberries,"Saturday, 18 March 2017",true
Blueberries,"Wednesday, 22 March 2017",true
Blueberries,"Saturday, 18 March 2017",true
Green Oakleaf,"Saturday, 18 March 2017",true
Papaya Flowers,"Wednesday, 22 March 2017",true
Blueberries,"Monday, 20 March 2017",true
Blueberries,"Monday, 20 March 2017",true
Curly Lettuce,"Wednesday, 22 March 2017",true
Blueberries,"Monday, 20 March 2017",true
Papaya Flowers,"Wednesday, 22 March 2017",true
Edamame,"Saturday, 25 March 2017",true
Labu Siam,"Wednesday, 22 March 2017",true
Papaya Flowers,"Wednesday, 22 March 2017",true
Green Oakleaf,"Wednesday, 22 March 2017",true
Monster Avocado,"Wednesday, 22 March 2017",true
Curly Lettuce,"Wednesday, 22 March 2017",true
Sweet Potato,"Wednesday, 22 March 2017",true
Pare,"Wednesday, 22 March 2017",true
Red Raddish,"Wednesday, 22 March 2017",true
Baby Corn,"Saturday, 25 March 2017",true
Baby Corn,"Saturday, 25 March 2017",true
Cassava Leaves,"Saturday, 25 March 2017",true
Edamame,"Monday, 27 March 2017",true
Pak Choy,"Saturday, 25 March 2017",true
Red Spinach,"Saturday, 25 March 2017",true
Edamame,"Saturday, 25 March 2017",true
Baby Corn,"Saturday, 25 March 2017",true
Strawberry,"Saturday, 25 March 2017",true
Red Spinach,"Saturday, 25 March 2017",true
Red Beans,"Wednesday, 29 March 2017",true
Edamame,"Saturday, 25 March 2017",true
Red Oakleaf,"Saturday, 25 March 2017",true
Red Spinach,"Saturday, 25 March 2017",true
Baby Corn,"Saturday, 25 March 2017",true
Green Paprika,"Saturday, 25 March 2017",true
Blackberry,"Monday, 27 March 2017",true
Blackberry,"Monday, 27 March 2017",true
Blackberry,"Monday, 27 March 2017",true
Red Beans,"Monday, 27 March 2017",true
Red Beans,"Monday, 27 March 2017",true
Red Beans,"Monday, 27 March 2017",true
Long beans,"Monday, 27 March 2017",true
Sweet Potato,"Saturday, 01 April 2017",true
Curly Kale,"Monday, 03 April 2017",true
Green Spinach,"Wednesday, 29 March 2017",true
Green Spinach,"Wednesday, 29 March 2017",true
Red Beans,"Wednesday, 29 March 2017",true
Sweet Potato,"Saturday, 01 April 2017",true
Curly Lettuce,"Wednesday, 29 March 2017",true
Green Spinach,"Wednesday, 29 March 2017",true
Curly Kale,"Monday, 03 April 2017",true
Green Oakleaf,"Monday, 03 April 2017",true
Red Oakleaf,"Monday, 03 April 2017",true
Aloe Vera,"Saturday, 01 April 2017",true
Curly Lettuce,"Monday, 03 April 2017",true
Banana,"Saturday, 01 April 2017",true
Yellow Paprika,"Saturday, 01 April 2017",true
Green Spinach,"Saturday, 01 April 2017",true
Green Spinach,"Saturday, 01 April 2017",true
Banana,"Saturday, 01 April 2017",true
Italian Parsley,"Saturday, 01 April 2017",true
Green Spinach,"Saturday, 01 April 2017",true
Red Raddish,"Wednesday, 05 April 2017",true
Zucchini,"Wednesday, 05 April 2017",true
Aloe Vera,"Wednesday, 05 April 2017",true
Momotaro Tomato,"Monday, 10 April 2017",true
Mint,"Monday, 10 April 2017",true
Green Paprika,"Wednesday, 05 April 2017",true
Mint,"Monday, 10 April 2017",true
Green Oakleaf,"Saturday, 08 April 2017",true
Red Oakleaf,"Saturday, 08 April 2017",true
Carrot,"Saturday, 08 April 2017",true
Beans,"Saturday, 08 April 2017",true
Red Dragon Fruit,"Saturday, 08 April 2017",true
Mint,"Monday, 10 April 2017",true
Mixed Berries,"Saturday, 15 April 2017",true
Leek,"Monday, 10 April 2017",true
Red Spinach,"Saturday, 15 April 2017",true
Potatoes,"Monday, 10 April 2017",true
Potatoes,"Monday, 10 April 2017",true
Leek,"Monday, 10 April 2017",true
Momotaro Tomato,"Monday, 10 April 2017",true
Mint,"Monday, 10 April 2017",true
Momotaro Tomato,"Monday, 10 April 2017",true
Red Rice,"Monday, 10 April 2017",true
Organic Eggs,"Monday, 10 April 2017",true
Garlic,"Monday, 10 April 2017",true
Yellow Sweet Potato,"Wednesday, 12 April 2017",true
Beans,"Wednesday, 12 April 2017",true
Beetroot,"Wednesday, 12 April 2017",true
Green Spinach,"Wednesday, 12 April 2017",true
Cauliflower,"Wednesday, 12 April 2017",true
Beetroot,"Wednesday, 12 April 2017",true
Zucchini,"Wednesday, 12 April 2017",true
Beetroot,"Wednesday, 12 April 2017",true
Japanese Cucumber,"Wednesday, 12 April 2017",true
Yellow Paprika,"Wednesday, 12 April 2017",true
Beetroot,"Wednesday, 12 April 2017",true
Zucchini,"Wednesday, 12 April 2017",true
Yellow Paprika,"Wednesday, 12 April 2017",true
Beans,"Wednesday, 12 April 2017",true
Broccoli,"Wednesday, 12 April 2017",true
Baby Corn,"Wednesday, 12 April 2017",true
Pak Choy,"Wednesday, 12 April 2017",true
Celery,"Wednesday, 12 April 2017",true
Red Beans,"Wednesday, 12 April 2017",true
Celery,"Wednesday, 12 April 2017",true
Chinese Cabbage,"Wednesday, 12 April 2017",true
Beans,"Wednesday, 12 April 2017",true
Sweet Corn,"Wednesday, 12 April 2017",true
Horenzo,"Wednesday, 12 April 2017",true
Long beans,"Wednesday, 12 April 2017",true
Yellow Paprika,"Wednesday, 12 April 2017",true
Banana,"Monday, 17 April 2017",true
Chinese Cabbage,"Wednesday, 12 April 2017",true
Beans,"Wednesday, 12 April 2017",true
Broccoli,"Wednesday, 12 April 2017",true
Blackberry,"Wednesday, 12 April 2017",true
Eggplant,"Wednesday, 12 April 2017",true
Cauliflower,"Wednesday, 12 April 2017",true
Zucchini,"Wednesday, 12 April 2017",true
Red Paprika,"Wednesday, 12 April 2017",true
Yellow Paprika,"Wednesday, 12 April 2017",true
Red Beans,"Wednesday, 12 April 2017",true
Ginger,"Wednesday, 12 April 2017",true
Yellow Paprika,"Wednesday, 12 April 2017",true
Sweet Corn,"Wednesday, 12 April 2017",true
Leek,"Wednesday, 12 April 2017",true
Labu Siam,"Wednesday, 12 April 2017",true
Blackberry,"Wednesday, 12 April 2017",true
Beetroot,"Wednesday, 12 April 2017",true
Broccoli,"Wednesday, 12 April 2017",true
Celery,"Wednesday, 12 April 2017",true
Red Paprika,"Wednesday, 12 April 2017",true
Aloe Vera,"Wednesday, 12 April 2017",true
Japanese Cucumber,"Wednesday, 12 April 2017",true
Red Spinach,"Wednesday, 12 April 2017",true
Italian Parsley,"Wednesday, 12 April 2017",true
Horenzo,"Wednesday, 12 April 2017",true
Japanese Cucumber,"Wednesday, 12 April 2017",true
Yellow Paprika,"Wednesday, 12 April 2017",true
Labu Siam,"Wednesday, 12 April 2017",true
Baby Carrot,"Wednesday, 12 April 2017",true
Blackberry,"Wednesday, 12 April 2017",true
Blackberry,"Saturday, 15 April 2017",true
Beans,"Wednesday, 12 April 2017",true
Green Paprika,"Wednesday, 12 April 2017",true
Long beans,"Wednesday, 12 April 2017",true
Eggplant,"Wednesday, 12 April 2017",true
Green Spinach,"Wednesday, 12 April 2017",true
Cauliflower,"Wednesday, 12 April 2017",true
Labu Siam,"Wednesday, 12 April 2017",true
Blackberry,"Wednesday, 12 April 2017",true
Red Spinach,"Saturday, 15 April 2017",true
Horenzo,"Wednesday, 12 April 2017",true
Red Beans,"Wednesday, 12 April 2017",true
Zucchini,"Wednesday, 12 April 2017",true
Broccoli,"Wednesday, 12 April 2017",true
Carrot,"Wednesday, 12 April 2017",true
Red Paprika,"Wednesday, 12 April 2017",true
Beans,"Wednesday, 12 April 2017",true
Italian Parsley,"Saturday, 15 April 2017",true
Blackberry,"Saturday, 15 April 2017",true
Blackberry,"Saturday, 15 April 2017",true
Blackberry,"Saturday, 15 April 2017",true
Red Beans,"Monday, 17 April 2017",true
Blackberry,"Saturday, 15 April 2017",true
Strawberry,"Saturday, 15 April 2017",true
Avocado,"Saturday, 15 April 2017",true
Blackberry,"Saturday, 15 April 2017",true
Blackberry,"Saturday, 15 April 2017",true
Water Spinach,"Saturday, 15 April 2017",true
Cauliflower,"Saturday, 15 April 2017",true
Red Spinach,"Saturday, 15 April 2017",true
Blackberry,"Saturday, 15 April 2017",true
Blackberry,"Saturday, 15 April 2017",true
Red Spinach,"Saturday, 15 April 2017",true
Blackberry,"Saturday, 15 April 2017",true
Blackberry,"Saturday, 15 April 2017",true
Water Spinach,"Saturday, 15 April 2017",true
Italian Parsley,"Saturday, 15 April 2017",true
Red Raddish,"Saturday, 15 April 2017",true
Blackberry,"Saturday, 15 April 2017",true
Tahu Premium,"Saturday, 15 April 2017",true
Blackberry,"Saturday, 15 April 2017",true
Blackberry,"Saturday, 15 April 2017",true
Endive,"Saturday, 15 April 2017",true
Blackberry,"Saturday, 15 April 2017",true
Blackberry,"Saturday, 15 April 2017",true
Cabbage,"Monday, 17 April 2017",true
Beef Tomato,"Monday, 17 April 2017",true
Red Beans,"Monday, 17 April 2017",true
Italian Parsley,"Monday, 17 April 2017",true
Caisim,"Thursday, 20 April 2017",true
Beef Tomato,"Thursday, 20 April 2017",true
Cherry Tomato,"Thursday, 20 April 2017",true
Zucchini,"Thursday, 20 April 2017",true
Baby Carrot,"Thursday, 20 April 2017",true
Banana,"Thursday, 20 April 2017",true
Chinese Cabbage,"Thursday, 20 April 2017",true
Kailan,"Thursday, 20 April 2017",true
Kailan,"Thursday, 20 April 2017",true
Beef Tomato,"Thursday, 20 April 2017",true
Kailan,"Thursday, 20 April 2017",true
Cherry Apples,"Thursday, 20 April 2017",true
Zucchini,"Thursday, 20 April 2017",true
Banana,"Tuesday, 25 April 2017",true
Pare,"Saturday, 22 April 2017",true
Yellow Paprika,"Saturday, 22 April 2017",true
Pare,"Saturday, 22 April 2017",true
Monster Avocado,"Saturday, 22 April 2017",true
Beef Tomato,"Thursday, 20 April 2017",true
Monster Avocado,"Tuesday, 25 April 2017",true
Horenzo,"Tuesday, 25 April 2017",true
Banana,"Tuesday, 25 April 2017",true
Shallots,"Tuesday, 25 April 2017",true
Curly Chili,"Tuesday, 25 April 2017",true
Horenzo,"Saturday, 22 April 2017",true
Horenzo,"Saturday, 22 April 2017",true
Monster Avocado,"Wednesday, 26 April 2017",true
Edamame,"Tuesday, 25 April 2017",true
Horenzo,"Saturday, 22 April 2017",true
Oyong,"Saturday, 22 April 2017",true
Pare,"Saturday, 22 April 2017",true
Cassava,"Saturday, 22 April 2017",true
Horenzo,"Tuesday, 25 April 2017",true
Kailan,"Wednesday, 26 April 2017",true
Green Oakleaf,"Saturday, 22 April 2017",true
Cherry Tomato,"Saturday, 22 April 2017",true
Horenzo,"Saturday, 22 April 2017",true
Passion Fruit,"Saturday, 29 April 2017",true
Banana,"Tuesday, 25 April 2017",true
Keffir Lime,"Saturday, 29 April 2017",true
Watercress,"Saturday, 29 April 2017",true
Passion Fruit,"Wednesday, 26 April 2017",true
Italian Parsley,"Wednesday, 26 April 2017",true
Kale Nero,"Tuesday, 25 April 2017",true
Italian Parsley,"Tuesday, 25 April 2017",true
Fennel,"Saturday, 29 April 2017",true
Passion Fruit,"Saturday, 29 April 2017",true
Passion Fruit,"Wednesday, 26 April 2017",true
Passion Fruit,"Wednesday, 26 April 2017",true
Baby Corn,"Wednesday, 26 April 2017",true
Passion Fruit,"Wednesday, 26 April 2017",true
Passion Fruit,"Wednesday, 26 April 2017",true
Passion Fruit,"Wednesday, 26 April 2017",true
Pare,"Friday, 28 April 2017",true
Pare,"Friday, 28 April 2017",true
Passion Fruit,"Wednesday, 26 April 2017",true
Kailan,"Wednesday, 26 April 2017",true
Sugar tomato,"Tuesday, 02 May 2017",true
Watercress,"Tuesday, 02 May 2017",true
Tempe Organik,"Friday, 28 April 2017",true
Zucchini,"Wednesday, 26 April 2017",true
Java Orange,"Wednesday, 26 April 2017",true
Oyong,"Wednesday, 26 April 2017",true
Celery,"Friday, 28 April 2017",true
Beef Tomato,"Friday, 28 April 2017",true
Ear Mushroom,"Saturday, 29 April 2017",true
Beef Tomato,"Friday, 28 April 2017",true
Cherry Tomato,"Friday, 28 April 2017",true
Tempe Organik,"Friday, 28 April 2017",true
Baby Corn,"Friday, 28 April 2017",true
Long beans,"Saturday, 29 April 2017",true
Green Curly Chilli,"Saturday, 29 April 2017",true
Ear Mushroom,"Saturday, 29 April 2017",true
Labu Siam,"Saturday, 29 April 2017",true
Butterhead Lettuce,"Saturday, 29 April 2017",true
Tempe Organik,"Friday, 28 April 2017",true
Tempe Organik,"Friday, 28 April 2017",true
Coriander,"Saturday, 29 April 2017",true
Kailan,"Saturday, 29 April 2017",true
Celery,"Friday, 28 April 2017",true
Tempe Organik,"Friday, 28 April 2017",true
Beef Tomato,"Friday, 28 April 2017",true
Pagoda,"Friday, 28 April 2017",true
Pare,"Friday, 28 April 2017",true
Tempe Organik,"Friday, 28 April 2017",true
Tempe Organik,"Friday, 28 April 2017",true
Ginger,"Wednesday, 03 May 2017",true
Red Raddish,"Saturday, 29 April 2017",true
Kailan,"Saturday, 29 April 2017",true
Coriander,"Saturday, 29 April 2017",true
Butterhead Lettuce,"Saturday, 29 April 2017",true
Kailan,"Saturday, 29 April 2017",true
Purple Cabbage,"Saturday, 29 April 2017",true
Sweet Corn,"Saturday, 29 April 2017",true
Labu Siam,"Saturday, 29 April 2017",true
Butterhead Lettuce,"Saturday, 29 April 2017",true
Tempe Organik,"Friday, 05 May 2017",true
Watercress,"Friday, 05 May 2017",true
Edamame,"Saturday, 29 April 2017",true
Green Curly Chilli,"Saturday, 29 April 2017",true
Keffir Lime,"Tuesday, 02 May 2017",true
Kailan,"Tuesday, 02 May 2017",true
Rosemary,"Tuesday, 02 May 2017",true
Banana,"Tuesday, 02 May 2017",true
Kailan,"Tuesday, 02 May 2017",true
Papaya Flowers,"Tuesday, 02 May 2017",true
Beans,"Wednesday, 03 May 2017",true
Almond Milk,"Tuesday, 02 May 2017",true
Eggplant,"Wednesday, 03 May 2017",true
Kailan,"Wednesday, 03 May 2017",true
Green Spinach,"Wednesday, 03 May 2017",true
Tempe Organik,"Wednesday, 03 May 2017",true
Mixed Chips Cheese,"Wednesday, 03 May 2017",true
Papaya California,"Wednesday, 03 May 2017",true
Cherry Tomato,"Wednesday, 03 May 2017",true
Trio Lettuce,"Wednesday, 03 May 2017",true
Yellow Paprika,"Wednesday, 03 May 2017",true
Avocado,"Wednesday, 03 May 2017",true
Green Spinach,"Wednesday, 03 May 2017",true
Oyong,"Wednesday, 03 May 2017",true
Oyong,"Wednesday, 03 May 2017",true
Java Orange,"Monday, 08 May 2017",true
Oyong,"Wednesday, 03 May 2017",true
Chinese Cabbage,"Wednesday, 03 May 2017",true
Moringa Powder,"Wednesday, 03 May 2017",true
Pare,"Wednesday, 03 May 2017",true
Oyong,"Wednesday, 03 May 2017",true
Beef Tomato,"Friday, 05 May 2017",true
Green Spinach,"Wednesday, 03 May 2017",true
Papaya California,"Saturday, 06 May 2017",true
Banana,"Saturday, 06 May 2017",true
Kale Nero,"Friday, 05 May 2017",true
Cauliflower,"Friday, 05 May 2017",true
Butterhead Lettuce,"Friday, 05 May 2017",true
Kale Nero,"Friday, 05 May 2017",true
Fennel,"Friday, 05 May 2017",true
Coriander,"Friday, 05 May 2017",true
Coriander,"Friday, 05 May 2017",true
Butterhead Lettuce,"Friday, 05 May 2017",true
Watercress,"Friday, 05 May 2017",true
Beans,"Friday, 05 May 2017",true
Water Spinach,"Friday, 05 May 2017",true
Kale Nero,"Friday, 05 May 2017",true
Cauliflower,"Friday, 05 May 2017",true
Yellow Paprika,"Friday, 05 May 2017",true
Pak Choy,"Friday, 05 May 2017",true
Baby Corn,"Saturday, 06 May 2017",true
Butterhead Lettuce,"Saturday, 06 May 2017",true
Kale Nero,"Friday, 05 May 2017",true
Beans,"Friday, 05 May 2017",true
Kale Nero,"Friday, 05 May 2017",true
Caisim,"Wednesday, 10 May 2017",true
Kailan,"Wednesday, 10 May 2017",true
Natural Sea Salt ,"Wednesday, 10 May 2017",true
Butterhead Lettuce,"Saturday, 06 May 2017",true
Mint,"Friday, 05 May 2017",true
Kale Nero,"Friday, 05 May 2017",true
Butterhead Lettuce,"Friday, 05 May 2017",true
Red Raddish,"Friday, 05 May 2017",true
Kale Nero,"Friday, 05 May 2017",true
Kale Nero,"Monday, 08 May 2017",true
Beans,"Friday, 05 May 2017",true
Pak Choy,"Friday, 05 May 2017",true
Butterhead Lettuce,"Friday, 05 May 2017",true
Yellow Paprika,"Friday, 05 May 2017",true
Water Spinach,"Friday, 05 May 2017",true
Cauliflower,"Friday, 05 May 2017",true
Kale Nero,"Monday, 08 May 2017",true
Caisim,"Monday, 08 May 2017",true
Kailan,"Monday, 08 May 2017",true
Pak Choy,"Monday, 08 May 2017",true
Shallots,"Monday, 08 May 2017",true
Butterhead Lettuce,"Monday, 08 May 2017",true
Zucchini,"Monday, 08 May 2017",true
Kailan,"Monday, 08 May 2017",true
Kale Nero,"Monday, 08 May 2017",true
Shallots,"Monday, 08 May 2017",true
Watercress,"Monday, 08 May 2017",true
Butterhead Lettuce,"Saturday, 06 May 2017",true
Curly Chili,"Saturday, 06 May 2017",true
Butterhead Lettuce,"Saturday, 06 May 2017",true
Butterhead Lettuce,"Saturday, 06 May 2017",true
Banana,"Saturday, 06 May 2017",true
Rosella,"Saturday, 06 May 2017",true
Kale Nero,"Monday, 08 May 2017",true
Butterhead Lettuce,"Saturday, 06 May 2017",true
Coriander,"Wednesday, 10 May 2017",true
Natural Sea Salt ,"Monday, 08 May 2017",true
Kale Nero,"Monday, 08 May 2017",true
Mix Microgreens,"Monday, 08 May 2017",true
Galia Melon,"Monday, 08 May 2017",true
Kale Nero,"Monday, 08 May 2017",true
Watercress,"Monday, 08 May 2017",true
Italian Cantaloupe,"Monday, 08 May 2017",true
Kale Nero,"Wednesday, 10 May 2017",true
Keffir Lime,"Friday, 12 May 2017",true
Coriander,"Friday, 12 May 2017",true
Caisim,"Monday, 08 May 2017",true
Cabbage,"Monday, 08 May 2017",true
Watercress,"Monday, 08 May 2017",true
Green Romaine,"Wednesday, 10 May 2017",true
Italian Cantaloupe,"Monday, 08 May 2017",true
Watercress,"Monday, 08 May 2017",true
Kale Nero,"Wednesday, 10 May 2017",true
Curly Lettuce,"Monday, 08 May 2017",true
Watercress,"Monday, 08 May 2017",true
Shallots,"Monday, 08 May 2017",true
Curly Lettuce,"Monday, 08 May 2017",true
Shallots,"Monday, 08 May 2017",true
Kale Nero,"Wednesday, 10 May 2017",true
Butterhead Lettuce,"Monday, 08 May 2017",true
Watercress,"Monday, 08 May 2017",true
Cauliflower,"Wednesday, 10 May 2017",true
Kailan,"Monday, 08 May 2017",true
Kale Nero,"Monday, 08 May 2017",true
Cherry Apples,"Saturday, 13 May 2017",true
Kale Nero,"Monday, 08 May 2017",true
Kailan,"Monday, 08 May 2017",true
Green Romaine,"Wednesday, 10 May 2017",true
Coriander,"Wednesday, 10 May 2017",true
Green Romaine,"Wednesday, 10 May 2017",true
Cauliflower,"Wednesday, 10 May 2017",true
Caisim,"Wednesday, 10 May 2017",true
Watercress,"Wednesday, 10 May 2017",true
Banana,"Wednesday, 10 May 2017",true
Beef Tomato,"Wednesday, 10 May 2017",true
Sweet Corn,"Wednesday, 10 May 2017",true
Banana,"Wednesday, 10 May 2017",true
Kale Nero,"Wednesday, 10 May 2017",true
Wheatgrass,"Wednesday, 10 May 2017",true
Green Romaine,"Wednesday, 10 May 2017",true
Red Dragon Fruit,"Wednesday, 10 May 2017",true
Red Spinach,"Wednesday, 10 May 2017",true
Butterhead Lettuce,"Wednesday, 10 May 2017",true
Kailan,"Wednesday, 10 May 2017",true
Green Romaine,"Wednesday, 10 May 2017",true
Kale Nero,"Wednesday, 10 May 2017",true
Banana,"Wednesday, 10 May 2017",true
Watercress,"Wednesday, 10 May 2017",true
Baby Corn,"Wednesday, 10 May 2017",true
Papaya California,"Wednesday, 10 May 2017",true
Green Romaine,"Wednesday, 10 May 2017",true
Fennel,"Wednesday, 10 May 2017",true
Kale Nero,"Wednesday, 10 May 2017",true
Cherry Tomato,"Wednesday, 10 May 2017",true
Butterhead Lettuce,"Wednesday, 10 May 2017",true
Green Curly Chilli,"Friday, 12 May 2017",true
Endive,"Friday, 12 May 2017",true
Banana,"Wednesday, 10 May 2017",true
Red Spinach,"Wednesday, 10 May 2017",true
Watercress,"Wednesday, 10 May 2017",true
Caisim,"Wednesday, 10 May 2017",true
Banana,"Wednesday, 10 May 2017",true
Endive,"Friday, 12 May 2017",true
Kale Nero,"Wednesday, 10 May 2017",true
Butterhead Lettuce,"Wednesday, 10 May 2017",true
Watercress,"Wednesday, 10 May 2017",true
Green Romaine,"Wednesday, 10 May 2017",true
Butterhead Lettuce,"Wednesday, 10 May 2017",true
Caisim,"Wednesday, 10 May 2017",true
Watercress,"Wednesday, 10 May 2017",true
Butterhead Lettuce,"Wednesday, 10 May 2017",true
Kale Nero,"Wednesday, 10 May 2017",true
Green Curly Chilli,"Friday, 12 May 2017",true
Endive,"Friday, 12 May 2017",true
Shrimp Past,"Friday, 12 May 2017",true
Sweet Corn,"Wednesday, 10 May 2017",true
Banana,"Wednesday, 10 May 2017",true
Kailan,"Wednesday, 10 May 2017",true
Caisim,"Wednesday, 10 May 2017",true
Ear Mushroom,"Wednesday, 10 May 2017",true
Yellow Paprika,"Saturday, 13 May 2017",true
Banana,"Friday, 12 May 2017",true
Green Oakleaf,"Friday, 12 May 2017",true
Watercress,"Monday, 15 May 2017",true
Beans,"Friday, 12 May 2017",true
Keffir Lime,"Friday, 12 May 2017",true
Green Curly Chilli,"Friday, 12 May 2017",true
Green Oakleaf,"Wednesday, 17 May 2017",true
Endive,"Friday, 12 May 2017",true
Chinese Cabbage,"Friday, 12 May 2017",true
Keffir Lime,"Saturday, 13 May 2017",true
Cherry Apples,"Saturday, 13 May 2017",true
Rosemary,"Saturday, 13 May 2017",true
Honey Pineapple,"Saturday, 13 May 2017",true
Kale Nero,"Monday, 15 May 2017",true
Watercress,"Monday, 15 May 2017",true
Red Raddish,"Wednesday, 17 May 2017",true
Watercress,"Saturday, 13 May 2017",true
Kailan,"Monday, 15 May 2017",true
Kale Nero,"Monday, 15 May 2017",true
Avocado,"Monday, 15 May 2017",true
Red Oakleaf,"Friday, 12 May 2017",true
Green Oakleaf,"Saturday, 13 May 2017",true
Yellow Paprika,"Saturday, 13 May 2017",true
Cherry Apples,"Saturday, 13 May 2017",true
Cauliflower,"Saturday, 13 May 2017",true
Green Oakleaf,"Saturday, 13 May 2017",true
Sweet Potato,"Friday, 19 May 2017",true
Avocado,"Monday, 15 May 2017",true
Banana,"Monday, 15 May 2017",true
Avocado,"Monday, 15 May 2017",true
Yellow Paprika,"Saturday, 13 May 2017",true
Baby Carrot,"Wednesday, 17 May 2017",true
Zucchini,"Saturday, 13 May 2017",true
Broccoli,"Saturday, 13 May 2017",true
Avocado,"Monday, 15 May 2017",true
Basil,"Monday, 15 May 2017",true
Cauliflower,"Saturday, 13 May 2017",true
Cauliflower,"Saturday, 13 May 2017",true
Kale Nero,"Saturday, 13 May 2017",true
Avocado,"Monday, 15 May 2017",true
Kailan,"Monday, 15 May 2017",true
Basil,"Monday, 15 May 2017",true
Horenzo,"Monday, 15 May 2017",true
Horenzo,"Monday, 15 May 2017",true
Papaya Bangkok,"Monday, 15 May 2017",true
Oyong,"Monday, 15 May 2017",true
Avocado,"Monday, 15 May 2017",true
Kale Nero,"Monday, 15 May 2017",true
Avocado,"Monday, 15 May 2017",true
Curly Chili,"Monday, 15 May 2017",true
Papaya Bangkok,"Monday, 15 May 2017",true
Basil,"Wednesday, 17 May 2017",true
Avocado,"Friday, 19 May 2017",true
Coriander,"Wednesday, 17 May 2017",true
Kailan,"Monday, 15 May 2017",true
Horenzo,"Monday, 15 May 2017",true
Watercress,"Monday, 15 May 2017",true
Kailan,"Wednesday, 17 May 2017",true
Avocado,"Monday, 15 May 2017",true
Kailan,"Monday, 15 May 2017",true
Avocado,"Monday, 15 May 2017",true
Sweet Potato,"Monday, 15 May 2017",true
Potatoes,"Monday, 15 May 2017",true
Kale Nero,"Monday, 15 May 2017",true
Horenzo,"Monday, 15 May 2017",true
Banana,"Monday, 15 May 2017",true
Green Paprika,"Wednesday, 17 May 2017",true
Curly Chili,"Wednesday, 17 May 2017",true
Mint,"Friday, 19 May 2017",true
Kailan,"Wednesday, 17 May 2017",true
Coriander,"Wednesday, 17 May 2017",true
Curly Chili,"Wednesday, 17 May 2017",true
Coriander,"Wednesday, 17 May 2017",true
Coriander,"Wednesday, 17 May 2017",true
Avocado,"Friday, 19 May 2017",true
Coriander,"Wednesday, 17 May 2017",true
Java Orange,"Wednesday, 17 May 2017",true
Salanova Lettuce,"Wednesday, 17 May 2017",true
Mango,"Friday, 19 May 2017",true
Basil,"Wednesday, 17 May 2017",true
Coriander,"Wednesday, 17 May 2017",true
Baby Carrot,"Wednesday, 17 May 2017",true
Oyong,"Friday, 19 May 2017",true
Sweet Potato,"Wednesday, 17 May 2017",true
Kailan,"Wednesday, 17 May 2017",true
Banana,"Wednesday, 17 May 2017",true
Kailan,"Wednesday, 17 May 2017",true
Coriander,"Wednesday, 17 May 2017",true
Basil,"Wednesday, 17 May 2017",true
Coriander,"Wednesday, 17 May 2017",true
Coriander,"Wednesday, 17 May 2017",true
Coriander,"Wednesday, 17 May 2017",true
Java Orange,"Wednesday, 17 May 2017",true
Red Raddish,"Wednesday, 17 May 2017",true
Papaya California,"Friday, 19 May 2017",true
Basil,"Wednesday, 17 May 2017",true
Watercress,"Friday, 19 May 2017",true
Java Orange,"Wednesday, 17 May 2017",true
Cassava,"Wednesday, 17 May 2017",true
Mango,"Friday, 19 May 2017",true
Mango,"Friday, 19 May 2017",true
Green Oakleaf,"Wednesday, 17 May 2017",true
Java Orange,"Wednesday, 17 May 2017",true
Banana,"Wednesday, 17 May 2017",true
Coriander,"Wednesday, 17 May 2017",true
Cauliflower,"Friday, 19 May 2017",true
Horenzo,"Friday, 19 May 2017",true
Mango,"Friday, 19 May 2017",true
Cauliflower,"Monday, 22 May 2017",true
Raspberry,"Friday, 19 May 2017",true
Watercress,"Friday, 19 May 2017",true
Kailan,"Friday, 19 May 2017",true
Kale Nero,"Friday, 19 May 2017",true
Mint,"Friday, 19 May 2017",true
Sweet Potato,"Saturday, 20 May 2017",true
Mango,"Saturday, 20 May 2017",true
Coriander,"Saturday, 20 May 2017",true
Rosemary,"Saturday, 20 May 2017",true
Java Orange,"Saturday, 20 May 2017",true
Kale Nero,"Friday, 19 May 2017",true
Watercress,"Friday, 19 May 2017",true
Rosemary,"Wednesday, 24 May 2017",true
Kale Nero,"Friday, 19 May 2017",true
Raspberry,"Friday, 19 May 2017",true
Horenzo,"Friday, 19 May 2017",true
Coriander,"Saturday, 20 May 2017",true
Java Orange,"Saturday, 20 May 2017",true
Papaya Flowers,"Saturday, 20 May 2017",true
Cauliflower,"Saturday, 20 May 2017",true
Mango,"Friday, 19 May 2017",true
Mango,"Friday, 19 May 2017",true
Raspberry,"Friday, 19 May 2017",true
Yellow Sweet Potato,"Friday, 19 May 2017",true
Raspberry,"Friday, 19 May 2017",true
Cauliflower,"Friday, 19 May 2017",true
Watercress,"Friday, 19 May 2017",true
Mango,"Friday, 19 May 2017",true
Mango,"Saturday, 20 May 2017",true
Mint,"Friday, 19 May 2017",true
Raspberry,"Friday, 19 May 2017",true
Raspberry,"Friday, 19 May 2017",true
Basil,"Saturday, 20 May 2017",true
Red Raddish,"Friday, 19 May 2017",true
Raspberry,"Friday, 19 May 2017",true
Raspberry,"Friday, 19 May 2017",true
Mint,"Friday, 19 May 2017",true
Raspberry,"Friday, 19 May 2017",true
Horenzo,"Friday, 19 May 2017",true
Watercress,"Friday, 19 May 2017",true
Mint,"Friday, 19 May 2017",true
Watercress,"Friday, 19 May 2017",true
Cauliflower,"Friday, 19 May 2017",true
Watercress,"Friday, 19 May 2017",true
Mango,"Saturday, 20 May 2017",true
Butterhead Lettuce,"Monday, 22 May 2017",true
Rosella,"Saturday, 20 May 2017",true
Watercress,"Saturday, 20 May 2017",true
Sweet Potato,"Saturday, 20 May 2017",true
Coriander,"Saturday, 20 May 2017",true
Mango,"Saturday, 20 May 2017",true
Sweet Potato,"Saturday, 20 May 2017",true
Java Orange,"Saturday, 20 May 2017",true
Blueberries,"Saturday, 20 May 2017",true
Rosella,"Wednesday, 24 May 2017",true
Mango,"Saturday, 20 May 2017",true
Coriander,"Saturday, 20 May 2017",true
Coriander,"Saturday, 20 May 2017",true
Watercress,"Saturday, 20 May 2017",true
Coriander,"Saturday, 20 May 2017",true
Mango,"Saturday, 20 May 2017",true
Coriander,"Saturday, 20 May 2017",true
Java Orange,"Saturday, 20 May 2017",true
Cauliflower,"Saturday, 20 May 2017",true
Red Spinach,"Saturday, 20 May 2017",true
Java Orange,"Monday, 22 May 2017",true
Java Orange,"Monday, 22 May 2017",true
Avocado,"Monday, 22 May 2017",true
Cauliflower,"Monday, 22 May 2017",true
Celery,"Monday, 22 May 2017",true
Papaya California,"Monday, 22 May 2017",true
Avocado,"Monday, 22 May 2017",true
Coriander,"Monday, 22 May 2017",true
Java Orange,"Monday, 22 May 2017",true
Coriander,"Saturday, 27 May 2017",true
Butterhead Lettuce,"Saturday, 27 May 2017",true
Tahu Premium,"Monday, 22 May 2017",true
Keffir Lime,"Monday, 22 May 2017",true
Butterhead Lettuce,"Monday, 22 May 2017",true
Butterhead Lettuce,"Monday, 22 May 2017",true
Cauliflower,"Monday, 22 May 2017",true
Horenzo,"Monday, 22 May 2017",true
Cauliflower,"Monday, 22 May 2017",true
Horenzo,"Monday, 22 May 2017",true
Red Spinach,"Monday, 22 May 2017",true
Java Orange,"Monday, 22 May 2017",true
Red Spinach,"Wednesday, 24 May 2017",true
Avocado,"Friday, 26 May 2017",true
Rosella,"Wednesday, 24 May 2017",true
Butterhead Lettuce,"Wednesday, 24 May 2017",true
Green Curly Chilli,"Wednesday, 24 May 2017",true
Zucchini,"Wednesday, 24 May 2017",true
Onion,"Wednesday, 24 May 2017",true
Zucchini,"Wednesday, 24 May 2017",true
Zucchini,"Wednesday, 24 May 2017",true
Rosella,"Wednesday, 24 May 2017",true
Zucchini,"Wednesday, 24 May 2017",true
Onion,"Wednesday, 24 May 2017",true
Banana,"Wednesday, 24 May 2017",true
Kecombrang,"Wednesday, 24 May 2017",true
Kale Nero,"Wednesday, 24 May 2017",true
Celery,"Wednesday, 24 May 2017",true
Broccoli,"Friday, 26 May 2017",true
Butterhead Lettuce,"Friday, 26 May 2017",true
Zucchini,"Wednesday, 24 May 2017",true
Papaya California,"Wednesday, 24 May 2017",true
Oyong,"Wednesday, 24 May 2017",true
Kale Nero,"Wednesday, 24 May 2017",true
Onion,"Wednesday, 24 May 2017",true
Butterhead Lettuce,"Wednesday, 24 May 2017",true
Zucchini,"Wednesday, 24 May 2017",true
Zucchini,"Wednesday, 24 May 2017",true
Zucchini,"Wednesday, 24 May 2017",true
Rosella,"Wednesday, 24 May 2017",true
Avocado,"Wednesday, 24 May 2017",true
Oyong,"Wednesday, 24 May 2017",true
Onion,"Wednesday, 24 May 2017",true
Ear Mushroom,"Wednesday, 24 May 2017",true
Zucchini,"Wednesday, 24 May 2017",true
Rosella,"Wednesday, 24 May 2017",true
Green Curly Chilli,"Monday, 29 May 2017",true
Coriander,"Monday, 29 May 2017",true
Horenzo,"Monday, 29 May 2017",true
Red Paprika,"Monday, 29 May 2017",true
Banana,"Monday, 29 May 2017",true
Coriander,"Saturday, 27 May 2017",true
Horenzo,"Friday, 26 May 2017",true
Coriander,"Monday, 29 May 2017",true
Red Paprika,"Monday, 29 May 2017",true
Broccoli,"Friday, 26 May 2017",true
Mango,"Friday, 26 May 2017",true
Avocado,"Friday, 26 May 2017",true
Mango,"Friday, 26 May 2017",true
Mango,"Friday, 26 May 2017",true
Horenzo,"Friday, 26 May 2017",true
Mango,"Friday, 26 May 2017",true
Mint,"Friday, 26 May 2017",true
Green Curly Chilli,"Monday, 29 May 2017",true
Coriander,"Monday, 29 May 2017",true
Butterhead Lettuce,"Friday, 26 May 2017",true
Pare,"Friday, 26 May 2017",true
Horenzo,"Friday, 26 May 2017",true
Galia Melon,"Friday, 26 May 2017",true
Baby Potatoes,"Friday, 26 May 2017",true
Mango,"Friday, 26 May 2017",true
Butternut Pumpkin,"Friday, 26 May 2017",true
Mint,"Friday, 26 May 2017",true
Horenzo,"Friday, 26 May 2017",true
Galia Melon,"Friday, 26 May 2017",true
Cauliflower,"Saturday, 27 May 2017",true
Ear Mushroom,"Saturday, 27 May 2017",true
Ear Mushroom,"Saturday, 27 May 2017",true
Papaya California,"Monday, 29 May 2017",true
Horenzo,"Friday, 26 May 2017",true
Pak Choy,"Friday, 26 May 2017",true
Butterhead Lettuce,"Saturday, 27 May 2017",true
Baby Carrot,"Saturday, 27 May 2017",true
Coriander,"Saturday, 27 May 2017",true
Green Romaine,"Saturday, 27 May 2017",true
Chinese Cabbage,"Saturday, 27 May 2017",true
Green Romaine,"Saturday, 27 May 2017",true
Horenzo,"Saturday, 27 May 2017",true
Mango,"Saturday, 27 May 2017",true
Ear Mushroom,"Wednesday, 31 May 2017",true
Avocado - NTT,"Saturday, 27 May 2017",true
Avocado - NTT,"Saturday, 27 May 2017",true
Avocado - NTT,"Saturday, 27 May 2017",true
Avocado - NTT,"Saturday, 27 May 2017",true
Avocado - NTT,"Saturday, 27 May 2017",true
Keffir Lime,"Monday, 29 May 2017",true
Beans,"Monday, 29 May 2017",true
Italian Cantaloupe,"Monday, 29 May 2017",true
Red Paprika,"Monday, 29 May 2017",true
Butterhead Lettuce,"Monday, 29 May 2017",true
Red Dragon Fruit,"Monday, 29 May 2017",true
Banana,"Monday, 29 May 2017",true
Basil,"Friday, 02 June 2017",true
Horenzo,"Friday, 02 June 2017",true
Red Paprika,"Friday, 02 June 2017",true
Coriander,"Monday, 29 May 2017",true
Red Paprika,"Monday, 29 May 2017",true
Basil,"Monday, 29 May 2017",true
Avocado,"Monday, 29 May 2017",true
Coriander,"Monday, 29 May 2017",true
Coriander,"Monday, 29 May 2017",true
Italian Cantaloupe,"Monday, 29 May 2017",true
Avocado,"Monday, 29 May 2017",true
Coriander,"Monday, 29 May 2017",true
Green Curly Chilli,"Monday, 29 May 2017",true
Butterhead Lettuce,"Monday, 29 May 2017",true
Chinese Cabbage,"Monday, 29 May 2017",true
Curly Chili,"Monday, 29 May 2017",true
Basil,"Monday, 29 May 2017",true
Red Paprika,"Monday, 29 May 2017",true
Curly Chili,"Monday, 29 May 2017",true
Yoghurt Honey Vanila,"Wednesday, 31 May 2017",true
Papaya California,"Wednesday, 31 May 2017",true
Red Paprika,"Wednesday, 31 May 2017",true
Papaya California,"Wednesday, 31 May 2017",true
A Come To Papaya,"Wednesday, 31 May 2017",true
Zucchini,"Wednesday, 31 May 2017",true
Red Paprika,"Wednesday, 31 May 2017",true
Chinese Cabbage,"Wednesday, 31 May 2017",true
Butterhead Lettuce,"Wednesday, 31 May 2017",true
Red Paprika,"Wednesday, 31 May 2017",true
Chinese Cabbage,"Wednesday, 31 May 2017",true
Papaya California,"Wednesday, 31 May 2017",true
Papaya California,"Wednesday, 31 May 2017",true
Banana,"Wednesday, 31 May 2017",true
Papaya California,"Wednesday, 31 May 2017",true
Red Paprika,"Wednesday, 31 May 2017",true
Red Oakleaf,"Wednesday, 31 May 2017",true
Keffir Lime,"Wednesday, 31 May 2017",true
Zucchini,"Wednesday, 31 May 2017",true
Green Tomato,"Wednesday, 31 May 2017",true
Butterhead Lettuce,"Wednesday, 31 May 2017",true
Kale Nero,"Wednesday, 31 May 2017",true
Red Paprika,"Wednesday, 31 May 2017",true
Papaya California,"Wednesday, 31 May 2017",true
Papaya California,"Wednesday, 31 May 2017",true
Red Dragon Fruit,"Wednesday, 31 May 2017",true
Beetroot,"Wednesday, 31 May 2017",true
Papaya California,"Wednesday, 31 May 2017",true
Oyong,"Friday, 02 June 2017",true
Red Paprika,"Monday, 05 June 2017",true
Rosella,"Wednesday, 31 May 2017",true
Red Raddish,"Wednesday, 31 May 2017",true
Red Paprika,"Wednesday, 31 May 2017",true
Papaya California,"Wednesday, 31 May 2017",true
Sugar tomato,"Friday, 02 June 2017",true
Red Paprika,"Friday, 02 June 2017",true
Keffir Lime,"Friday, 02 June 2017",true
Green Kabocha,"Friday, 02 June 2017",true
Red Paprika,"Friday, 02 June 2017",true
Green Spinach,"Friday, 02 June 2017",true
Horenzo,"Friday, 02 June 2017",true
Basil,"Friday, 02 June 2017",true
Horenzo,"Friday, 02 June 2017",true
Horenzo,"Friday, 02 June 2017",true
Basil,"Friday, 02 June 2017",true
Green Spinach,"Friday, 02 June 2017",true
Horenzo,"Friday, 02 June 2017",true
Horenzo,"Friday, 02 June 2017",true
Yoghurt Plain,"Friday, 02 June 2017",true
Endive,"Friday, 02 June 2017",true
Endive,"Saturday, 03 June 2017",true
Keffir Lime,"Friday, 02 June 2017",true
Endive,"Friday, 02 June 2017",true
Kecombrang,"Saturday, 03 June 2017",true
Pare,"Monday, 05 June 2017",true
Green Paprika,"Monday, 05 June 2017",true
Oyong,"Saturday, 03 June 2017",true
Baby Carrot,"Saturday, 03 June 2017",true
Baby Carrot,"Saturday, 03 June 2017",true
Basil,"Saturday, 03 June 2017",true
Mint,"Monday, 05 June 2017",true
Basil,"Monday, 05 June 2017",true
Baby Carrot,"Saturday, 03 June 2017",true
Basil,"Saturday, 03 June 2017",true
Long beans,"Monday, 05 June 2017",true
Timun Suri,"Monday, 05 June 2017",true
Jalapeno,"Wednesday, 07 June 2017",true
Beans,"Monday, 05 June 2017",true
Caisim,"Monday, 05 June 2017",true
Pare,"Monday, 05 June 2017",true
Green Paprika,"Monday, 05 June 2017",true
Pak Choy,"Monday, 05 June 2017",true
Red Spinach,"Monday, 05 June 2017",true
Red Paprika,"Monday, 05 June 2017",true
Green Spinach,"Monday, 05 June 2017",true
Red Paprika,"Monday, 05 June 2017",true
Baby Corn,"Monday, 05 June 2017",true
Horenzo,"Monday, 05 June 2017",true
Jalapeno,"Saturday, 10 June 2017",true
Beans,"Monday, 05 June 2017",true
Green Paprika,"Monday, 05 June 2017",true
Red Paprika,"Monday, 05 June 2017",true
Timun Suri,"Monday, 05 June 2017",true
Timun Suri,"Monday, 05 June 2017",true
Italian Cantaloupe,"Wednesday, 07 June 2017",true
Raspberry,"Wednesday, 07 June 2017",true
Java Orange,"Wednesday, 07 June 2017",true
Mixed Berries,"Wednesday, 07 June 2017",true
Red Paprika,"Friday, 09 June 2017",true
Avocado,"Wednesday, 07 June 2017",true
Mixed Berries,"Wednesday, 07 June 2017",true
Jalapeno,"Wednesday, 07 June 2017",true
Mixed Berries,"Wednesday, 07 June 2017",true
Papaya California,"Wednesday, 07 June 2017",true
Avocado,"Wednesday, 07 June 2017",true
Mixed Berries,"Wednesday, 07 June 2017",true
Shrimp Past,"Wednesday, 07 June 2017",true
Yellow Paprika,"Wednesday, 07 June 2017",true
Avocado,"Wednesday, 07 June 2017",true
Java Orange,"Wednesday, 07 June 2017",true
Shrimp Past,"Wednesday, 07 June 2017",true
Beans,"Wednesday, 07 June 2017",true
Green Oakleaf,"Wednesday, 07 June 2017",true
Papaya California,"Wednesday, 07 June 2017",true
Java Orange,"Wednesday, 07 June 2017",true
Cherry Apples,"Wednesday, 07 June 2017",true
Green Oakleaf,"Wednesday, 07 June 2017",true
Yellow Paprika,"Wednesday, 07 June 2017",true
Banana,"Wednesday, 07 June 2017",true
Keffir Lime,"Friday, 09 June 2017",true
Avocado,"Wednesday, 07 June 2017",true
Java Orange,"Wednesday, 07 June 2017",true
Beans,"Wednesday, 07 June 2017",true
Broccoli,"Wednesday, 07 June 2017",true
Red Paprika,"Monday, 12 June 2017",true
Horenzo,"Friday, 09 June 2017",true
Horenzo,"Friday, 09 June 2017",true
Blue Pea,"Saturday, 10 June 2017",true
Wheatgrass,"Saturday, 10 June 2017",true
Horenzo,"Friday, 09 June 2017",true
Mixed Chips Cheese,"Friday, 09 June 2017",true
Horenzo,"Friday, 09 June 2017",true
Cassava Leaves,"Saturday, 10 June 2017",true
Red Paprika,"Friday, 09 June 2017",true
Yellow Paprika,"Friday, 09 June 2017",true
Zucchini,"Friday, 09 June 2017",true
Red Paprika,"Friday, 09 June 2017",true
Sugar tomato,"Monday, 12 June 2017",true
Red Paprika,"Friday, 09 June 2017",true
Yellow Paprika,"Friday, 09 June 2017",true
Zucchini,"Friday, 09 June 2017",true
Crunchy PeanutButter,"Friday, 09 June 2017",true
Red Paprika,"Friday, 09 June 2017",true
Horenzo,"Friday, 09 June 2017",true
Baby Potatoes,"Saturday, 10 June 2017",true
Red Paprika,"Friday, 09 June 2017",true
Avocado,"Monday, 12 June 2017",true
Baby Potatoes,"Saturday, 10 June 2017",true
Wheatgrass,"Saturday, 10 June 2017",true
Cherry Tomato,"Saturday, 10 June 2017",true
Oyong,"Saturday, 10 June 2017",true
Timun Suri,"Saturday, 10 June 2017",true
Shallots,"Saturday, 10 June 2017",true
Garlic,"Saturday, 10 June 2017",true
Green Paprika,"Monday, 12 June 2017",true
Banana,"Monday, 12 June 2017",true
Red Paprika,"Saturday, 10 June 2017",true
Yellow Paprika,"Saturday, 10 June 2017",true
Jalapeno,"Saturday, 10 June 2017",true
Red Paprika,"Saturday, 10 June 2017",true
Yellow Paprika,"Saturday, 10 June 2017",true
Yellow Paprika,"Saturday, 10 June 2017",true
Sugar tomato,"Saturday, 10 June 2017",true
Green Oakleaf,"Saturday, 10 June 2017",true
Cabbage,"Wednesday, 14 June 2017",true
Beans,"Monday, 12 June 2017",true
Green Curly Chilli,"Monday, 12 June 2017",true
Menthik Wangi Rice,"Saturday, 17 June 2017",true
Banana,"Saturday, 17 June 2017",true
Beans,"Monday, 12 June 2017",true
Banana,"Monday, 12 June 2017",true
Avocado,"Monday, 12 June 2017",true
Banana,"Monday, 12 June 2017",true
Banana,"Monday, 12 June 2017",true
Banana,"Monday, 12 June 2017",true
Banana,"Monday, 12 June 2017",true
Baby Potatoes,"Wednesday, 14 June 2017",true
Banana,"Monday, 12 June 2017",true
Banana,"Monday, 12 June 2017",true
Horenzo,"Monday, 12 June 2017",true
Banana,"Monday, 12 June 2017",true
Beans,"Monday, 12 June 2017",true
Yellow Sweet Potato,"Friday, 16 June 2017",true
Beans,"Monday, 12 June 2017",true
Red Chili Flakes,"Monday, 12 June 2017",true
Red Paprika,"Monday, 12 June 2017",true
Starfruit,"Wednesday, 14 June 2017",true
Yellow Paprika,"Wednesday, 14 June 2017",true
Cherry Apples,"Wednesday, 14 June 2017",true
Yellow Paprika,"Wednesday, 14 June 2017",true
Baby Potatoes,"Wednesday, 14 June 2017",true
Starfruit,"Wednesday, 14 June 2017",true
Baby Potatoes,"Wednesday, 14 June 2017",true
Menthik Wangi Rice,"Saturday, 17 June 2017",true
Yellow Paprika,"Wednesday, 14 June 2017",true
Cherry Apples,"Wednesday, 14 June 2017",true
Baby Carrot,"Wednesday, 14 June 2017",true
Rosemary,"Wednesday, 14 June 2017",true
Rosemary,"Wednesday, 14 June 2017",true
Curly Kale,"Wednesday, 14 June 2017",true
Red Paprika,"Wednesday, 14 June 2017",true
Golden Melon,"Wednesday, 14 June 2017",true
Cherry Apples,"Wednesday, 14 June 2017",true
Starfruit,"Wednesday, 14 June 2017",true
Baby Potatoes,"Wednesday, 14 June 2017",true
Cashew Milk,"Wednesday, 14 June 2017",true
Almond Milk,"Wednesday, 14 June 2017",true
Green Dwarf Kale,"Wednesday, 14 June 2017",true
Yoghurt Plain,"Wednesday, 14 June 2017",true
Starfruit,"Wednesday, 14 June 2017",true
Baby Potatoes,"Friday, 16 June 2017",true
Baby Potatoes,"Friday, 16 June 2017",true
Baby Potatoes,"Friday, 16 June 2017",true
Green Oakleaf,"Friday, 16 June 2017",true
Butterhead Lettuce,"Friday, 16 June 2017",true
Butterhead Lettuce,"Friday, 16 June 2017",true
Banana,"Friday, 16 June 2017",true
Butterhead Lettuce,"Friday, 16 June 2017",true
Terung Jepang,"Friday, 16 June 2017",true
Basil,"Wednesday, 21 June 2017",true
Banana,"Saturday, 17 June 2017",true
Curly Kale,"Friday, 16 June 2017",true
Broccoli,"Friday, 16 June 2017",true
Baby Potatoes,"Friday, 16 June 2017",true
Water Spinach,"Saturday, 17 June 2017",true
Yellow Sweet Potato,"Friday, 16 June 2017",true
Yellow Sweet Potato,"Friday, 16 June 2017",true
Baby Corn,"Saturday, 17 June 2017",true
Yellow Sweet Potato,"Saturday, 17 June 2017",true
Blueberries,"Wednesday, 21 June 2017",true
Blueberries,"Wednesday, 21 June 2017",true
Banana,"Saturday, 17 June 2017",true
Coconut Water Jelly,"Saturday, 17 June 2017",true
Labu Siam,"Monday, 19 June 2017",true
Basil,"Wednesday, 21 June 2017",true
Banana,"Wednesday, 21 June 2017",true
Keffir Lime,"Monday, 19 June 2017",true
Green Tomato,"Friday, 23 June 2017",true
Basil,"Wednesday, 21 June 2017",true
Blueberries,"Wednesday, 21 June 2017",true
Labu Air,"Wednesday, 21 June 2017",true
White Raddish,"Friday, 23 June 2017",true
Banana,"Friday, 23 June 2017",true
Avocado,"Friday, 23 June 2017",true
Mixed Chips Cheese,"Friday, 23 June 2017",true
Banana,"Friday, 23 June 2017",true
Banana,"Friday, 23 June 2017",true
Banana,"Friday, 23 June 2017",true
Banana,"Friday, 23 June 2017",true
Avocado,"Friday, 23 June 2017",true
Banana,"Friday, 23 June 2017",true
Banana,"Friday, 23 June 2017",true
Banana,"Friday, 23 June 2017",true
Pare,"Monday, 03 July 2017",true
Starfruit,"Friday, 23 June 2017",true
Green Tomato,"Friday, 23 June 2017",true
Banana,"Friday, 23 June 2017",true
Banana,"Friday, 23 June 2017",true
Kabocha,"Friday, 23 June 2017",true
Banana,"Friday, 23 June 2017",true
Banana,"Friday, 23 June 2017",true
Kesemek,"Monday, 03 July 2017",true
Baby Corn,"Friday, 07 July 2017",true
Italian Cantaloupe,"Friday, 07 July 2017",true
Kesemek,"Monday, 03 July 2017",true
Kesemek,"Monday, 03 July 2017",true
Kesemek,"Monday, 03 July 2017",true
Kabocha,"Wednesday, 05 July 2017",true
Mangostene,"Friday, 07 July 2017",true
Strawberry,"Monday, 03 July 2017",true
Blueberries,"Monday, 03 July 2017",true
Starfruit,"Wednesday, 05 July 2017",true
Italian Cantaloupe,"Wednesday, 05 July 2017",true
Kesemek,"Monday, 03 July 2017",true
Kesemek,"Monday, 03 July 2017",true
Kesemek,"Monday, 03 July 2017",true
Kailan,"Wednesday, 05 July 2017",true
Italian Cantaloupe,"Wednesday, 05 July 2017",true
Kesemek,"Wednesday, 05 July 2017",true
Cherry Apples,"Wednesday, 05 July 2017",true
Kesemek,"Monday, 03 July 2017",true
Pare,"Monday, 03 July 2017",true
Green Kabocha,"Friday, 07 July 2017",true
Pare,"Monday, 03 July 2017",true
Pare,"Wednesday, 05 July 2017",true
Kesemek,"Wednesday, 05 July 2017",true
Kesemek,"Wednesday, 05 July 2017",true
Italian Cantaloupe,"Wednesday, 05 July 2017",true
Aloe Vera,"Monday, 03 July 2017",true
Italian Cantaloupe,"Friday, 07 July 2017",true
Kesemek,"Wednesday, 05 July 2017",true
Pare,"Wednesday, 05 July 2017",true
Kailan,"Wednesday, 05 July 2017",true
Italian Cantaloupe,"Wednesday, 05 July 2017",true
Fennel,"Monday, 10 July 2017",true
Caisim,"Monday, 10 July 2017",true
Kailan,"Monday, 10 July 2017",true
Kale Nero,"Monday, 10 July 2017",true
Mint,"Monday, 10 July 2017",true
Pak Choy,"Monday, 10 July 2017",true
Avocado,"Monday, 10 July 2017",true
Kesemek,"Wednesday, 05 July 2017",true
Kabocha,"Wednesday, 05 July 2017",true
Papaya California,"Wednesday, 05 July 2017",true
Papaya California,"Wednesday, 05 July 2017",true
Golden Melon,"Wednesday, 05 July 2017",true
Italian Cantaloupe,"Wednesday, 05 July 2017",true
Momotaro Tomato,"Wednesday, 05 July 2017",true
Kesemek,"Wednesday, 05 July 2017",true
Horenzo,"Wednesday, 05 July 2017",true
Kailan,"Wednesday, 05 July 2017",true
Banana,"Wednesday, 05 July 2017",true
Cherry Apples,"Wednesday, 05 July 2017",true
Edamame,"Wednesday, 05 July 2017",true
Mango,"Wednesday, 05 July 2017",true
Fennel,"Monday, 10 July 2017",true
Caisim,"Monday, 10 July 2017",true
Kailan,"Monday, 10 July 2017",true
Kale Nero,"Monday, 10 July 2017",true
Pak Choy,"Monday, 10 July 2017",true
Avocado,"Monday, 10 July 2017",true
Yellow Paprika,"Wednesday, 05 July 2017",true
Italian Cantaloupe,"Wednesday, 05 July 2017",true
Momotaro Tomato,"Wednesday, 05 July 2017",true
Green Kabocha,"Wednesday, 05 July 2017",true
Mixed Berries,"Saturday, 08 July 2017",true
Kailan,"Wednesday, 05 July 2017",true
Green Kabocha,"Friday, 07 July 2017",true
Kabocha,"Wednesday, 05 July 2017",true
Carrot Hydro,"Wednesday, 05 July 2017",true
Papaya California,"Wednesday, 05 July 2017",true
Kailan,"Wednesday, 05 July 2017",true
Curly Chili,"Wednesday, 05 July 2017",true
Papaya California,"Wednesday, 05 July 2017",true
Mangostene,"Saturday, 08 July 2017",true
Raspberry,"Wednesday, 05 July 2017",true
Kailan,"Wednesday, 05 July 2017",true
Cherry Apples,"Wednesday, 05 July 2017",true
Baby Corn,"Friday, 07 July 2017",true
Sweet Corn,"Friday, 07 July 2017",true
Papaya California,"Wednesday, 05 July 2017",true
Pare,"Wednesday, 05 July 2017",true
Kaempferia Galanga,"Wednesday, 05 July 2017",true
Momotaro Tomato,"Wednesday, 05 July 2017",true
Kesemek,"Wednesday, 05 July 2017",true
Baby Corn,"Friday, 07 July 2017",true
Banana,"Friday, 07 July 2017",true
Cherry Tomato,"Friday, 07 July 2017",true
Curly Chili,"Friday, 07 July 2017",true
Italian Cantaloupe,"Friday, 07 July 2017",true
Sweet Corn,"Friday, 07 July 2017",true
Banana,"Friday, 07 July 2017",true
Mangostene,"Friday, 07 July 2017",true
Green Spinach,"Friday, 07 July 2017",true
Mango,"Friday, 07 July 2017",true
Banana,"Friday, 07 July 2017",true
Cherry Tomato,"Friday, 07 July 2017",true
Baby Corn,"Friday, 07 July 2017",true
Cherry Tomato,"Friday, 07 July 2017",true
Banana,"Friday, 07 July 2017",true
A Come To Papaya,"Saturday, 08 July 2017",true
Banana,"Friday, 07 July 2017",true
Mango,"Friday, 07 July 2017",true
Java Orange,"Wednesday, 12 July 2017",true
Italian Cantaloupe,"Friday, 07 July 2017",true
Italian Cantaloupe,"Friday, 07 July 2017",true
Sweet Corn,"Friday, 07 July 2017",true
Green Kabocha,"Friday, 07 July 2017",true
Mangostene,"Friday, 07 July 2017",true
Cherry Tomato,"Friday, 07 July 2017",true
Basil,"Friday, 07 July 2017",true
Baby Corn,"Friday, 07 July 2017",true
Kabocha,"Saturday, 08 July 2017",true
Pak Choy,"Monday, 10 July 2017",true
Cherry Tomato,"Friday, 07 July 2017",true
Cucumber,"Friday, 07 July 2017",true
Cherry Tomato,"Friday, 07 July 2017",true
Italian Cantaloupe,"Friday, 07 July 2017",true
Mangostene,"Saturday, 08 July 2017",true
Mangostene,"Saturday, 08 July 2017",true
Italian Cantaloupe,"Saturday, 08 July 2017",true
Mangostene,"Saturday, 08 July 2017",true
Potatoes,"Saturday, 08 July 2017",true
Potatoes,"Saturday, 08 July 2017",true
Keffir Lime,"Saturday, 08 July 2017",true
Mangostene,"Saturday, 08 July 2017",true
Italian Cantaloupe,"Saturday, 08 July 2017",true
Keffir Lime,"Wednesday, 12 July 2017",true
Italian Cantaloupe,"Saturday, 08 July 2017",true
Pak Choy,"Monday, 10 July 2017",true
Avocado,"Monday, 10 July 2017",true
Japanese Cucumber,"Saturday, 08 July 2017",true
Shrimp Past,"Saturday, 08 July 2017",true
Potatoes,"Saturday, 08 July 2017",true
Potatoes,"Monday, 10 July 2017",true
Kale Nero,"Monday, 10 July 2017",true
Beans,"Monday, 10 July 2017",true
Potatoes,"Monday, 10 July 2017",true
Mint,"Monday, 10 July 2017",true
Avocado,"Monday, 10 July 2017",true
Banana,"Monday, 10 July 2017",true
Purple Petra Basil,"Monday, 10 July 2017",true
Mint,"Monday, 10 July 2017",true
Beans,"Monday, 10 July 2017",true
Avocado,"Monday, 10 July 2017",true
Mango,"Monday, 10 July 2017",true
Caisim,"Monday, 10 July 2017",true
Kailan,"Monday, 10 July 2017",true
Cabbage,"Wednesday, 12 July 2017",true
Beans,"Monday, 10 July 2017",true
Kailan,"Monday, 10 July 2017",true
Cherry Tomato,"Monday, 10 July 2017",true
Pak Choy,"Monday, 10 July 2017",true
Banana,"Monday, 10 July 2017",true
Pak Choy,"Monday, 10 July 2017",true
Java Orange,"Wednesday, 12 July 2017",true
Avocado,"Monday, 10 July 2017",true
Mint,"Monday, 10 July 2017",true
Kailan,"Monday, 10 July 2017",true
Avocado,"Monday, 10 July 2017",true
Avocado,"Monday, 10 July 2017",true
Potatoes,"Monday, 10 July 2017",true
Beans,"Monday, 10 July 2017",true
Kale Nero,"Monday, 10 July 2017",true
Avocado,"Monday, 10 July 2017",true
Mint,"Monday, 10 July 2017",true
Avocado,"Monday, 10 July 2017",true
Avocado,"Monday, 10 July 2017",true
Kale Nero,"Monday, 10 July 2017",true
Avocado,"Monday, 10 July 2017",true
A Fresh Farm Salad,"Monday, 10 July 2017",true
Avocado,"Monday, 10 July 2017",true
Kailan,"Monday, 10 July 2017",true
Potatoes,"Monday, 10 July 2017",true
Avocado,"Monday, 10 July 2017",true
Avocado,"Monday, 10 July 2017",true
Pak Choy,"Monday, 10 July 2017",true
Avocado,"Monday, 10 July 2017",true
Pak Choy,"Monday, 10 July 2017",true
Kale Nero,"Monday, 10 July 2017",true
Banana,"Friday, 14 July 2017",true
Java Orange,"Wednesday, 12 July 2017",true
Banana,"Wednesday, 12 July 2017",true
Banana,"Wednesday, 12 July 2017",true
Java Orange,"Wednesday, 12 July 2017",true
Java Orange,"Wednesday, 12 July 2017",true
Java Orange,"Wednesday, 12 July 2017",true
Java Orange,"Wednesday, 12 July 2017",true
Java Orange,"Wednesday, 12 July 2017",true
Green Spinach,"Friday, 14 July 2017",true
Okra Merah,"Wednesday, 12 July 2017",true
Papaya California,"Wednesday, 12 July 2017",true
Java Orange,"Wednesday, 12 July 2017",true
Papaya California,"Friday, 14 July 2017",true
Avocado,"Friday, 14 July 2017",true
Banana,"Friday, 14 July 2017",true
Sweet Potato,"Friday, 14 July 2017",true
Banana,"Friday, 14 July 2017",true
Oyong,"Saturday, 15 July 2017",true
Banana,"Friday, 14 July 2017",true
Kale Nero,"Monday, 17 July 2017",true
Edamame Organic,"Monday, 17 July 2017",true
Jambu CIncalo,"Friday, 14 July 2017",true
Kale Nero,"Wednesday, 19 July 2017",true
Edamame Organic,"Wednesday, 19 July 2017",true
Carrot,"Friday, 14 July 2017",true
Kaempferia Galanga,"Friday, 14 July 2017",true
Oyong,"Saturday, 15 July 2017",true
Okra Merah,"Saturday, 15 July 2017",true
Potatoes,"Saturday, 15 July 2017",true
Kale Nero,"Monday, 17 July 2017",true
Oyong,"Saturday, 15 July 2017",true
Basil,"Saturday, 15 July 2017",true
Kale Nero,"Monday, 17 July 2017",true
Almond Milk,"Monday, 17 July 2017",true
Chinese Cabbage,"Monday, 17 July 2017",true
Cauliflower,"Wednesday, 19 July 2017",true
Kale Nero,"Monday, 17 July 2017",true
Kale Nero,"Monday, 17 July 2017",true
Edamame Organic,"Monday, 17 July 2017",true
Avocado,"Monday, 17 July 2017",true
Kale Nero,"Monday, 17 July 2017",true
Chinese Cabbage,"Monday, 17 July 2017",true
Honey Pineapple,"Monday, 17 July 2017",true
Red Onion,"Wednesday, 19 July 2017",true
Caisim,"Monday, 24 July 2017",true
Red Onion,"Monday, 24 July 2017",true
Kailan,"Monday, 24 July 2017",true
Red Paprika,"Monday, 24 July 2017",true
Keffir Lime,"Wednesday, 19 July 2017",true
Coconut Cooking Oil,"Wednesday, 19 July 2017",true
Red Onion,"Wednesday, 19 July 2017",true
Almond Milk,"Saturday, 22 July 2017",true
A Chicken Salad,"Saturday, 22 July 2017",true
A Fresh Farm Salad,"Saturday, 22 July 2017",true
Edamame Organic,"Wednesday, 19 July 2017",true
Edamame Organic,"Wednesday, 19 July 2017",true
Avocado,"Wednesday, 19 July 2017",true
Basil,"Friday, 21 July 2017",true
Edamame Organic,"Wednesday, 19 July 2017",true
Green Curly Chilli,"Wednesday, 19 July 2017",true
Edamame Organic,"Wednesday, 19 July 2017",true
Cassava,"Wednesday, 19 July 2017",true
Jambu CIncalo,"Monday, 24 July 2017",true
Kailan,"Monday, 24 July 2017",true
Red Paprika,"Monday, 24 July 2017",true
Mixed Berries,"Friday, 21 July 2017",true
Caisim,"Saturday, 22 July 2017",true
Strawberry,"Friday, 21 July 2017",true
Yellow Paprika,"Monday, 24 July 2017",true
Edamame Organic,"Monday, 24 July 2017",true
Strawberry,"Friday, 21 July 2017",true
Honey Pineapple,"Saturday, 22 July 2017",true
Snake Fruit,"Friday, 21 July 2017",true
Eggplant,"Saturday, 22 July 2017",true
Edamame Organic,"Monday, 24 July 2017",true
Cherry Tomato,"Saturday, 22 July 2017",true
Caisim,"Saturday, 22 July 2017",true
Kailan,"Monday, 24 July 2017",true
Butterhead Lettuce,"Saturday, 22 July 2017",true
Avocado,"Monday, 24 July 2017",true
Caisim,"Saturday, 22 July 2017",true
Water Spinach,"Monday, 24 July 2017",true
Edamame Organic,"Monday, 24 July 2017",true
Blueberries,"Saturday, 29 July 2017",true
Aloe Vera,"Wednesday, 26 July 2017",true
Green Curly Chilli,"Monday, 24 July 2017",true
Long beans,"Wednesday, 26 July 2017",true
Mango,"Wednesday, 26 July 2017",true
Butterhead Lettuce,"Wednesday, 26 July 2017",true
Kailan,"Monday, 24 July 2017",true
Yellow Paprika,"Monday, 24 July 2017",true
Kailan,"Monday, 24 July 2017",true
Caisim,"Monday, 24 July 2017",true
Edamame Organic,"Monday, 24 July 2017",true
Papaya California,"Friday, 28 July 2017",true
Kailan,"Monday, 24 July 2017",true
Kailan,"Monday, 24 July 2017",true
Kailan,"Monday, 24 July 2017",true
Kailan,"Monday, 24 July 2017",true
Zucchini,"Wednesday, 26 July 2017",true
Java Orange,"Wednesday, 26 July 2017",true
Red Beans,"Wednesday, 26 July 2017",true
Avocado,"Wednesday, 26 July 2017",true
Broccoli,"Wednesday, 26 July 2017",true
Beetroot,"Wednesday, 26 July 2017",true
Butterhead Lettuce,"Wednesday, 26 July 2017",true
Butterhead Lettuce,"Wednesday, 26 July 2017",true
Broccoli,"Wednesday, 26 July 2017",true
Broccoli,"Wednesday, 26 July 2017",true
Kailan,"Wednesday, 26 July 2017",true
Broccoli,"Wednesday, 26 July 2017",true
Red Beans,"Wednesday, 26 July 2017",true
Celery,"Wednesday, 26 July 2017",true
Mixed Berries,"Wednesday, 26 July 2017",true
Butterhead Lettuce,"Wednesday, 26 July 2017",true
Broccoli,"Wednesday, 26 July 2017",true
Cauliflower,"Wednesday, 26 July 2017",true
Chinese Cabbage,"Wednesday, 26 July 2017",true
Zucchini,"Wednesday, 26 July 2017",true
Java Orange,"Wednesday, 26 July 2017",true
Broccoli,"Wednesday, 26 July 2017",true
Aloe Vera,"Wednesday, 26 July 2017",true
Kailan,"Wednesday, 26 July 2017",true
Yellow Paprika,"Wednesday, 26 July 2017",true
Broccoli,"Wednesday, 26 July 2017",true
Baby Carrot,"Wednesday, 26 July 2017",true
Red Paprika,"Wednesday, 26 July 2017",true
Oyong,"Wednesday, 26 July 2017",true
Zucchini,"Wednesday, 26 July 2017",true
Red Beans,"Wednesday, 26 July 2017",true
Baby Watermelon,"Wednesday, 26 July 2017",true
Broccoli,"Wednesday, 26 July 2017",true
Zucchini,"Wednesday, 26 July 2017",true
Zucchini,"Wednesday, 26 July 2017",true
Red Beans,"Wednesday, 26 July 2017",true
Japanese Cucumber,"Wednesday, 26 July 2017",true
Jambu CIncalo,"Friday, 28 July 2017",true
Avocado,"Wednesday, 26 July 2017",true
Broccoli,"Wednesday, 26 July 2017",true
Red Beans,"Wednesday, 26 July 2017",true
Baby Carrot,"Wednesday, 26 July 2017",true
Broccoli,"Wednesday, 26 July 2017",true
Baby Carrot,"Wednesday, 26 July 2017",true
Broccoli,"Wednesday, 26 July 2017",true
Red Paprika,"Friday, 28 July 2017",true
Red Paprika,"Friday, 28 July 2017",true
Blueberries,"Monday, 31 July 2017",true
Blueberries,"Saturday, 29 July 2017",true
Honey Pineapple,"Saturday, 29 July 2017",true
Papaya Flowers,"Saturday, 29 July 2017",true
Green Oakleaf,"Wednesday, 02 August 2017",true
Red Paprika,"Friday, 28 July 2017",true
Avocado,"Friday, 28 July 2017",true
Oyong,"Friday, 28 July 2017",true
Oyong,"Monday, 31 July 2017",true
Red Paprika,"Friday, 28 July 2017",true
Red Paprika,"Friday, 28 July 2017",true
Red Paprika,"Friday, 28 July 2017",true
Red Paprika,"Friday, 28 July 2017",true
Papaya California,"Friday, 28 July 2017",true
Jambu CIncalo,"Wednesday, 02 August 2017",true
Blueberries,"Saturday, 29 July 2017",true
Blueberries,"Wednesday, 02 August 2017",true
Jambu CIncalo,"Wednesday, 02 August 2017",true
Jambu CIncalo,"Monday, 31 July 2017",true
Blueberries,"Wednesday, 02 August 2017",true
Monster Avocado,"Wednesday, 02 August 2017",true
Blueberries,"Monday, 31 July 2017",true
Monster Avocado,"Wednesday, 02 August 2017",true
Blueberries,"Monday, 31 July 2017",true
Monster Avocado,"Thursday, 03 August 2017",true
Avocado,"Monday, 31 July 2017",true
Banana,"Saturday, 29 July 2017",true
Mango,"Saturday, 29 July 2017",true
Papaya California,"Saturday, 29 July 2017",true
Blueberries,"Saturday, 29 July 2017",true
Blueberries,"Monday, 31 July 2017",true
Blueberries,"Saturday, 29 July 2017",true
Banana,"Saturday, 29 July 2017",true
Avocado,"Monday, 31 July 2017",true
Avocado,"Monday, 31 July 2017",true
Blueberries,"Monday, 31 July 2017",true
Jambu CIncalo,"Monday, 31 July 2017",true
Yellow Paprika,"Monday, 31 July 2017",true
Jambu CIncalo,"Monday, 31 July 2017",true
Papaya California,"Monday, 31 July 2017",true
Blueberries,"Monday, 31 July 2017",true
Yellow Paprika,"Monday, 31 July 2017",true
Blueberries,"Monday, 31 July 2017",true
Red Spinach,"Monday, 31 July 2017",true
Blueberries,"Monday, 31 July 2017",true
Avocado,"Monday, 31 July 2017",true
Blueberries,"Monday, 31 July 2017",true
Blueberries,"Monday, 31 July 2017",true
Red Spinach,"Monday, 31 July 2017",true
Blueberries,"Monday, 31 July 2017",true
Golden Melon,"Monday, 31 July 2017",true
Blueberries,"Monday, 31 July 2017",true
Blueberries,"Monday, 31 July 2017",true
Celery,"Monday, 31 July 2017",true
Papaya California,"Monday, 31 July 2017",true
Jambu CIncalo,"Thursday, 03 August 2017",true
Monster Avocado,"Thursday, 03 August 2017",true
Blueberries,"Monday, 31 July 2017",true
Organic Tofu,"Monday, 31 July 2017",true
Organic Tofu,"Monday, 31 July 2017",true
Jambu CIncalo,"Wednesday, 02 August 2017",true
Celery,"Monday, 31 July 2017",true
Celery,"Monday, 31 July 2017",true
Fennel,"Monday, 31 July 2017",true
Lemongrass,"Thursday, 03 August 2017",true
Celery,"Monday, 31 July 2017",true
Red Beans,"Monday, 31 July 2017",true
Avocado,"Monday, 31 July 2017",true
Lemongrass,"Thursday, 03 August 2017",true
Pare,"Thursday, 03 August 2017",true
Avocado,"Thursday, 03 August 2017",true
Curly Kale,"Wednesday, 02 August 2017",true
Jambu CIncalo,"Saturday, 05 August 2017",true
Honey Pineapple,"Thursday, 03 August 2017",true
Jambu CIncalo,"Thursday, 03 August 2017",true
Jambu CIncalo,"Thursday, 03 August 2017",true
Pare,"Wednesday, 02 August 2017",true
Sugar tomato,"Wednesday, 02 August 2017",true
Lemongrass,"Thursday, 03 August 2017",true
Menthik Wangi Rice,"Monday, 07 August 2017",true
Cherry Apples,"Thursday, 03 August 2017",true
Jambu CIncalo,"Thursday, 03 August 2017",true
Jambu CIncalo,"Thursday, 03 August 2017",true
Lemongrass,"Thursday, 03 August 2017",true
Kale Nero,"Thursday, 03 August 2017",true
Papaya Flowers,"Thursday, 03 August 2017",true
Kailan,"Thursday, 03 August 2017",true
Jambu CIncalo,"Thursday, 03 August 2017",true
Jambu CIncalo,"Thursday, 03 August 2017",true
Rockets,"Saturday, 05 August 2017",true
Honey Pineapple,"Thursday, 03 August 2017",true
Lemongrass,"Thursday, 03 August 2017",true
Honey Pineapple,"Thursday, 03 August 2017",true
Mint,"Thursday, 03 August 2017",true
Honey Pineapple,"Thursday, 03 August 2017",true
Cherry Apples,"Thursday, 03 August 2017",true
Kale Nero,"Thursday, 03 August 2017",true
Spring Onions,"Saturday, 05 August 2017",true
Jambu CIncalo,"Saturday, 05 August 2017",true
Red Raddish,"Saturday, 05 August 2017",true
Jambu CIncalo,"Saturday, 05 August 2017",true
Rockets,"Saturday, 05 August 2017",true
Papaya Flowers,"Saturday, 05 August 2017",true
Rockets,"Saturday, 05 August 2017",true
Spring Onions,"Saturday, 05 August 2017",true
Jambu CIncalo,"Saturday, 05 August 2017",true
Basil,"Saturday, 05 August 2017",true
Menthik Wangi Rice,"Saturday, 05 August 2017",true
Chinese Cabbage,"Monday, 07 August 2017",true
Green Oakleaf,"Wednesday, 09 August 2017",true
Spring Onions,"Saturday, 05 August 2017",true
Jambu CIncalo,"Wednesday, 09 August 2017",true
Spring Onions,"Saturday, 05 August 2017",true
Basil,"Saturday, 05 August 2017",true
Jambu CIncalo,"Saturday, 05 August 2017",true
Rockets,"Saturday, 05 August 2017",true
Mixed Berries,"Saturday, 05 August 2017",true
Papaya California,"Saturday, 05 August 2017",true
Chinese Cabbage,"Monday, 07 August 2017",true
Papaya Flowers,"Saturday, 05 August 2017",true
Basil,"Saturday, 05 August 2017",true
Rockets,"Saturday, 05 August 2017",true
Papaya Flowers,"Saturday, 05 August 2017",true
Spring Onions,"Saturday, 05 August 2017",true
Cassava Leaves,"Saturday, 05 August 2017",true
Basil,"Saturday, 05 August 2017",true
Papaya Flowers,"Saturday, 05 August 2017",true
Papaya California,"Saturday, 05 August 2017",true
Avocado,"Monday, 07 August 2017",true
Long beans,"Saturday, 05 August 2017",true
Long beans,"Saturday, 05 August 2017",true
Papaya Flowers,"Saturday, 05 August 2017",true
Chinese Cabbage,"Monday, 07 August 2017",true
Mixed Berries,"Thursday, 10 August 2017",true
Red Dragon Fruit,"Monday, 07 August 2017",true
Rockets,"Saturday, 05 August 2017",true
Horenzo,"Monday, 07 August 2017",true
Caisim,"Wednesday, 09 August 2017",true
Menthik Wangi Rice,"Saturday, 12 August 2017",true
Horenzo,"Monday, 07 August 2017",true
Green Coffee,"Monday, 07 August 2017",true
Red Raddish,"Monday, 07 August 2017",true
Green Coffee,"Monday, 07 August 2017",true
Green Oakleaf,"Wednesday, 09 August 2017",true
Banana,"Wednesday, 09 August 2017",true
Kailan,"Wednesday, 09 August 2017",true
Keffir Lime,"Wednesday, 09 August 2017",true
Honey Pineapple,"Wednesday, 09 August 2017",true
Papaya California,"Wednesday, 09 August 2017",true
Brocoli Noodle,"Thursday, 10 August 2017",true
Fennel,"Thursday, 10 August 2017",true
Fennel,"Thursday, 10 August 2017",true
Cherry Apples,"Wednesday, 16 August 2017",true
Caisim,"Monday, 14 August 2017",true
Starfruit,"Thursday, 10 August 2017",true
Fennel,"Thursday, 10 August 2017",true
Brocoli Noodle,"Thursday, 10 August 2017",true
Starfruit,"Thursday, 10 August 2017",true
Green Tea,"Thursday, 10 August 2017",true
Red Raddish,"Monday, 14 August 2017",true
Mint,"Saturday, 12 August 2017",true
Kale Nero,"Monday, 14 August 2017",true
Mangostene,"Monday, 14 August 2017",true
Almond Milk,"Monday, 14 August 2017",true
Mint,"Saturday, 12 August 2017",true
Avocado,"Monday, 14 August 2017",true
Mango,"Monday, 14 August 2017",true
Cherry Tomato,"Saturday, 12 August 2017",true
Mint,"Saturday, 12 August 2017",true
Almond Milk,"Wednesday, 16 August 2017",true
Red Ginger,"Saturday, 12 August 2017",true
Mangostene,"Wednesday, 16 August 2017",true
Mangostene,"Monday, 14 August 2017",true
Red Ginger,"Saturday, 12 August 2017",true
Mangostene,"Monday, 14 August 2017",true
Mangostene,"Monday, 14 August 2017",true
Mangostene,"Monday, 14 August 2017",true
Kailan,"Monday, 14 August 2017",true
Caisim,"Monday, 14 August 2017",true
Cassava,"Wednesday, 16 August 2017",true
Cherry Apples,"Wednesday, 16 August 2017",true
Curly Kale,"Wednesday, 16 August 2017",true
Guava,"Wednesday, 16 August 2017",true
Mangostene,"Wednesday, 16 August 2017",true
Cherry Apples,"Wednesday, 16 August 2017",true
Red Spinach,"Monday, 14 August 2017",true
Kailan,"Monday, 14 August 2017",true
Mangostene,"Monday, 14 August 2017",true
Mangostene,"Monday, 14 August 2017",true
Mangostene,"Wednesday, 16 August 2017",true
Mangostene,"Monday, 14 August 2017",true
Red Spinach,"Monday, 14 August 2017",true
Almond Milk,"Monday, 14 August 2017",true
Mangostene,"Monday, 14 August 2017",true
Sweet Potato,"Wednesday, 16 August 2017",true
Guava,"Wednesday, 16 August 2017",true
Green Tomato,"Friday, 18 August 2017",true
Cherry Apples,"Wednesday, 16 August 2017",true
Pak Choy,"Friday, 18 August 2017",true
Onion,"Saturday, 19 August 2017",true
Pak Choy,"Friday, 18 August 2017",true
Pak Choy,"Friday, 18 August 2017",true
Curly Kale,"Friday, 18 August 2017",true
Coconut Water Jelly,"Friday, 18 August 2017",true
Eggplant,"Monday, 21 August 2017",true
Pak Choy,"Friday, 18 August 2017",true
Curly Kale,"Friday, 18 August 2017",true
Eggplant,"Friday, 18 August 2017",true
Starfruit,"Saturday, 19 August 2017",true
Coconut Water Jelly,"Friday, 18 August 2017",true
Curly Kale,"Friday, 18 August 2017",true
Curly Kale,"Friday, 18 August 2017",true
Pak Choy,"Friday, 18 August 2017",true
Green Tomato,"Saturday, 19 August 2017",true
Pak Choy,"Friday, 18 August 2017",true
Curly Kale,"Friday, 18 August 2017",true
Starfruit,"Thursday, 24 August 2017",true
Yellow Tofu,"Thursday, 24 August 2017",true
Eggplant,"Friday, 18 August 2017",true
Yellow Tofu,"Saturday, 19 August 2017",true
Yellow Tofu,"Wednesday, 23 August 2017",true
Pare,"Wednesday, 23 August 2017",true
Onion,"Saturday, 19 August 2017",true
Yellow Tofu,"Saturday, 19 August 2017",true
Endive,"Saturday, 19 August 2017",true
Beans,"Monday, 21 August 2017",true
Beans,"Monday, 21 August 2017",true
Beans,"Monday, 21 August 2017",true
Beans,"Monday, 21 August 2017",true
Rockets,"Wednesday, 23 August 2017",true
Yellow Tofu,"Wednesday, 23 August 2017",true
Shrimp Past,"Wednesday, 23 August 2017",true
Kailan,"Wednesday, 23 August 2017",true
Banana,"Wednesday, 23 August 2017",true
Banana,"Wednesday, 23 August 2017",true
Banana,"Wednesday, 23 August 2017",true
Kailan,"Wednesday, 23 August 2017",true
Papaya California,"Wednesday, 23 August 2017",true
Rockets,"Wednesday, 23 August 2017",true
Rockets,"Wednesday, 23 August 2017",true
Yellow Tofu,"Wednesday, 23 August 2017",true
Pak Choy,"Saturday, 26 August 2017",true
Rockets,"Wednesday, 23 August 2017",true
Banana,"Wednesday, 23 August 2017",true
Lemongrass,"Thursday, 24 August 2017",true
Mint,"Thursday, 24 August 2017",true
Guava,"Thursday, 24 August 2017",true
Yellow Tofu,"Thursday, 24 August 2017",true
Red Spinach,"Thursday, 24 August 2017",true
Yellow Tofu,"Thursday, 24 August 2017",true
Keffir Lime,"Thursday, 24 August 2017",true
Mould Coconut Sugar,"Thursday, 24 August 2017",true
Yellow Tofu,"Thursday, 24 August 2017",true
Yellow Tofu,"Thursday, 24 August 2017",true
Guava,"Thursday, 24 August 2017",true
Red Spinach,"Thursday, 24 August 2017",true
Yellow Tofu,"Thursday, 24 August 2017",true
Mould Coconut Sugar,"Thursday, 24 August 2017",true
Cassava,"Thursday, 31 August 2017",true
Endive,"Friday, 25 August 2017",true
Green Paprika,"Saturday, 26 August 2017",true
Curly Kale,"Friday, 25 August 2017",true
Pak Choy,"Saturday, 26 August 2017",true
Pak Choy,"Saturday, 26 August 2017",true
Endive,"Saturday, 26 August 2017",true
Chinese Cabbage,"Wednesday, 30 August 2017",true
Guava,"Wednesday, 30 August 2017",true
Green Tomato,"Saturday, 26 August 2017",true
Pak Choy,"Saturday, 26 August 2017",true
Portobello Mushroom,"Monday, 28 August 2017",true
Portobello Mushroom,"Monday, 28 August 2017",true
Sumbawa Honey,"Monday, 28 August 2017",true
Portobello Mushroom,"Monday, 28 August 2017",true
Portobello Mushroom,"Thursday, 31 August 2017",true
Papaya Flowers,"Monday, 28 August 2017",true
Portobello Mushroom,"Monday, 28 August 2017",true
Portobello Mushroom,"Monday, 28 August 2017",true
Portobello Mushroom,"Monday, 28 August 2017",true
Broccoli,"Monday, 28 August 2017",true
Snake Fruit,"Monday, 28 August 2017",true
Orange Malang,"Tuesday, 29 August 2017",true
Italian Parsley,"Tuesday, 29 August 2017",true
Orange Malang,"Tuesday, 29 August 2017",true
Cherry Tomato,"Thursday, 31 August 2017",true
Italian Parsley,"Tuesday, 29 August 2017",true
Portobello Mushroom,"Wednesday, 30 August 2017",true
Guava,"Tuesday, 29 August 2017",true
Guava,"Tuesday, 29 August 2017",true
Portobello Mushroom,"Tuesday, 29 August 2017",true
Pak Choy,"Tuesday, 29 August 2017",true
Italian Parsley,"Tuesday, 29 August 2017",true
Orange Malang,"Tuesday, 29 August 2017",true
Papaya Flowers,"Tuesday, 29 August 2017",true
Pak Choy,"Tuesday, 29 August 2017",true
Pare,"Tuesday, 29 August 2017",true
Portobello Mushroom,"Wednesday, 30 August 2017",true
Orange Malang,"Tuesday, 29 August 2017",true
Portobello Mushroom,"Monday, 04 September 2017",true
Portobello Mushroom,"Tuesday, 29 August 2017",true
Chinese Cabbage,"Wednesday, 30 August 2017",true
A Chicken Salad,"Tuesday, 29 August 2017",true
Orange Malang,"Tuesday, 29 August 2017",true
Portobello Mushroom,"Tuesday, 29 August 2017",true
Pak Choy,"Tuesday, 29 August 2017",true
Guava,"Tuesday, 29 August 2017",true
Portobello Mushroom,"Tuesday, 29 August 2017",true
Papaya Flowers,"Tuesday, 29 August 2017",true
Banana,"Tuesday, 29 August 2017",true
Orange Malang,"Tuesday, 29 August 2017",true
Orange Malang,"Wednesday, 30 August 2017",true
Guava,"Tuesday, 29 August 2017",true
Orange Malang,"Tuesday, 29 August 2017",true
Chinese Cabbage,"Wednesday, 30 August 2017",true
Orange Malang,"Wednesday, 30 August 2017",true
Portobello Mushroom,"Wednesday, 30 August 2017",true
Zucchini,"Wednesday, 30 August 2017",true
Orange Malang,"Wednesday, 30 August 2017",true
Portobello Mushroom,"Wednesday, 30 August 2017",true
Kailan,"Monday, 04 September 2017",true
Green Tomato,"Wednesday, 30 August 2017",true
Portobello Mushroom,"Wednesday, 30 August 2017",true
Orange Malang,"Wednesday, 30 August 2017",true
Papaya California,"Wednesday, 30 August 2017",true
Orange Malang,"Wednesday, 30 August 2017",true
Cassava,"Thursday, 31 August 2017",true
Chinese Cabbage,"Wednesday, 30 August 2017",true
Chinese Cabbage,"Wednesday, 30 August 2017",true
Chinese Cabbage,"Wednesday, 30 August 2017",true
Papaya California,"Wednesday, 30 August 2017",true
Papaya Flowers,"Saturday, 02 September 2017",true
Cassava,"Thursday, 31 August 2017",true
Edamame,"Thursday, 31 August 2017",true
Coriander,"Thursday, 31 August 2017",true
Edamame,"Thursday, 31 August 2017",true
Rockets,"Thursday, 31 August 2017",true
Cherry Tomato,"Thursday, 31 August 2017",true
Coriander,"Thursday, 31 August 2017",true
Edamame,"Thursday, 31 August 2017",true
Coriander,"Thursday, 31 August 2017",true
Celery,"Saturday, 02 September 2017",true
Papaya Flowers,"Saturday, 02 September 2017",true
Shallots,"Saturday, 02 September 2017",true
Celery,"Saturday, 02 September 2017",true
Papaya California,"Saturday, 02 September 2017",true
Celery,"Saturday, 02 September 2017",true
Guava,"Monday, 04 September 2017",true
Chinese Cabbage,"Saturday, 02 September 2017",true
Green Tomato,"Saturday, 02 September 2017",true
Papaya California,"Saturday, 02 September 2017",true
Celery,"Saturday, 02 September 2017",true
Chinese Cabbage,"Saturday, 02 September 2017",true
Chinese Cabbage,"Saturday, 02 September 2017",true
Organic Tofu,"Monday, 04 September 2017",true
Coriander,"Saturday, 02 September 2017",true
Celery,"Monday, 04 September 2017",true
Guava,"Monday, 04 September 2017",true
Strawberry,"Monday, 04 September 2017",true
Pare,"Monday, 04 September 2017",true
Strawberry,"Monday, 04 September 2017",true
Guava,"Monday, 04 September 2017",true
Snake Fruit,"Monday, 04 September 2017",true
Champignon Mushroom,"Monday, 04 September 2017",true
Champignon Mushroom,"Monday, 04 September 2017",true
Cassava Leaves,"Thursday, 07 September 2017",true
Guava,"Thursday, 07 September 2017",true
Cabbage,"Monday, 04 September 2017",true
Kailan,"Saturday, 09 September 2017",true
Kailan,"Monday, 04 September 2017",true
Snake Fruit,"Monday, 04 September 2017",true
Snake Fruit,"Monday, 04 September 2017",true
Kailan,"Monday, 04 September 2017",true
Carrot Hydro,"Wednesday, 06 September 2017",true
Guava,"Wednesday, 06 September 2017",true
Carrot Hydro,"Wednesday, 06 September 2017",true
Guava,"Wednesday, 06 September 2017",true
Carrot Hydro,"Wednesday, 06 September 2017",true
Carrot Hydro,"Wednesday, 06 September 2017",true
Banana,"Wednesday, 06 September 2017",true
Carrot,"Wednesday, 06 September 2017",true
Snake Fruit,"Wednesday, 06 September 2017",true
Guava,"Wednesday, 06 September 2017",true
Carrot Hydro,"Wednesday, 06 September 2017",true
Italian Parsley,"Wednesday, 06 September 2017",true
Cabbage,"Wednesday, 06 September 2017",true
Siomak,"Wednesday, 06 September 2017",true
Guava,"Wednesday, 06 September 2017",true
Honey Pineapple,"Saturday, 09 September 2017",true
Banana,"Wednesday, 06 September 2017",true
Papaya California,"Thursday, 07 September 2017",true
Water Spinach,"Wednesday, 06 September 2017",true
Carrot Hydro,"Wednesday, 06 September 2017",true
Guava,"Wednesday, 06 September 2017",true
Guava,"Wednesday, 06 September 2017",true
Guava,"Wednesday, 06 September 2017",true
Banana,"Wednesday, 06 September 2017",true
Broccoli,"Wednesday, 06 September 2017",true
Labu Siam,"Thursday, 07 September 2017",true
Pak Choy,"Thursday, 07 September 2017",true
Pak Choy,"Thursday, 07 September 2017",true
Carrot Hydro,"Thursday, 07 September 2017",true
Green Oakleaf,"Thursday, 07 September 2017",true
Cherry Apples,"Thursday, 07 September 2017",true
Rockets,"Thursday, 07 September 2017",true
Pak Choy,"Thursday, 07 September 2017",true
Coriander,"Monday, 11 September 2017",true
Curly Kale,"Friday, 08 September 2017",true
Papaya California,"Thursday, 07 September 2017",true
Ambarella,"Thursday, 07 September 2017",true
Rockets,"Friday, 08 September 2017",true
Curly Kale,"Friday, 08 September 2017",true
Curly Kale,"Friday, 08 September 2017",true
Banana,"Friday, 08 September 2017",true
Curly Kale,"Friday, 08 September 2017",true
Mango,"Monday, 11 September 2017",true
Red Dragon Fruit,"Monday, 11 September 2017",true
Banana,"Friday, 08 September 2017",true
Curly Kale,"Friday, 08 September 2017",true
Coriander,"Monday, 11 September 2017",true
Red Dragon Fruit,"Monday, 11 September 2017",true
Organic Coffee,"Saturday, 09 September 2017",true
Cherry Tomato,"Monday, 11 September 2017",true
Guava,"Monday, 11 September 2017",true
Ambarella,"Saturday, 09 September 2017",true
Basil,"Saturday, 09 September 2017",true
Coriander,"Saturday, 09 September 2017",true
Red Dragon Fruit,"Monday, 11 September 2017",true
Kailan,"Saturday, 09 September 2017",true
Red Dragon Fruit,"Monday, 11 September 2017",true
Papaya California,"Monday, 11 September 2017",true
Ambarella,"Saturday, 09 September 2017",true
Red Dragon Fruit,"Monday, 11 September 2017",true
Onion,"Saturday, 09 September 2017",true
Cherry Tomato,"Monday, 11 September 2017",true
Red Beans,"Monday, 11 September 2017",true
Red Spinach,"Monday, 11 September 2017",true
Guava,"Monday, 11 September 2017",true
Mango,"Monday, 11 September 2017",true
Red Beans,"Monday, 11 September 2017",true
Mango,"Monday, 11 September 2017",true
Red Beans,"Monday, 11 September 2017",true
Red Dragon Fruit,"Monday, 11 September 2017",true
Coriander,"Monday, 11 September 2017",true
Eggplant,"Monday, 11 September 2017",true
Red Beans,"Monday, 11 September 2017",true
Coriander,"Monday, 11 September 2017",true
Red Dragon Fruit,"Monday, 11 September 2017",true
Okra Merah,"Monday, 11 September 2017",true
Okra Merah,"Monday, 11 September 2017",true
Red Spinach,"Monday, 11 September 2017",true
Jicama,"Monday, 11 September 2017",true
Red Beans,"Monday, 11 September 2017",true
Guava,"Monday, 11 September 2017",true
Red Dragon Fruit,"Monday, 11 September 2017",true
Red Dragon Fruit,"Monday, 11 September 2017",true
Red Dragon Fruit,"Monday, 11 September 2017",true
Horenzo,"Monday, 11 September 2017",true
Galangal,"Monday, 11 September 2017",true
Pare,"Monday, 11 September 2017",true
Guava,"Monday, 11 September 2017",true
Orange Malang,"Monday, 11 September 2017",true
Coriander,"Monday, 11 September 2017",true
Red Beans,"Monday, 11 September 2017",true
Coriander,"Monday, 11 September 2017",true
Champignon Mushroom,"Monday, 11 September 2017",true
Coriander,"Monday, 11 September 2017",true
Eggplant,"Monday, 11 September 2017",true
Mango,"Monday, 11 September 2017",true
Orange Malang,"Monday, 11 September 2017",true
White Raddish,"Monday, 11 September 2017",true
Orange Malang,"Monday, 11 September 2017",true
Orange Malang,"Monday, 11 September 2017",true
Orange Malang,"Monday, 11 September 2017",true
Orange Malang,"Monday, 11 September 2017",true
Jicama,"Thursday, 14 September 2017",true
Mint,"Wednesday, 13 September 2017",true
Red Spinach,"Wednesday, 13 September 2017",true
Kailan,"Wednesday, 13 September 2017",true
Jambu Kristal,"Thursday, 14 September 2017",true
Ambarella,"Thursday, 14 September 2017",true
Jambu Kristal,"Thursday, 14 September 2017",true
Curly Kale,"Friday, 15 September 2017",true
Fennel,"Saturday, 16 September 2017",true
Curly Kale,"Friday, 15 September 2017",true
Jambu Kristal,"Thursday, 14 September 2017",true
Curly Kale,"Friday, 15 September 2017",true
Curly Kale,"Friday, 15 September 2017",true
Jicama,"Friday, 15 September 2017",true
Cauliflower,"Saturday, 16 September 2017",true
Baby Pak Choy,"Friday, 15 September 2017",true
Ambarella,"Friday, 15 September 2017",true
Baby Pak Choy,"Friday, 15 September 2017",true
Jicama,"Friday, 15 September 2017",true
Rockets,"Friday, 15 September 2017",true
Jicama,"Friday, 15 September 2017",true
Baby Pak Choy,"Saturday, 16 September 2017",true
Green Romaine,"Saturday, 16 September 2017",true
Cauliflower,"Saturday, 16 September 2017",true
Italian Parsley,"Saturday, 16 September 2017",true
Champignon Mushroom,"Monday, 18 September 2017",true
Italian Parsley,"Saturday, 16 September 2017",true
Red Dragon Fruit,"Saturday, 16 September 2017",true
Strawberry,"Monday, 18 September 2017",true
Mango,"Saturday, 16 September 2017",true
Cabbage,"Monday, 18 September 2017",true
Mint,"Monday, 18 September 2017",true
Champignon Mushroom,"Monday, 18 September 2017",true
Mint,"Monday, 18 September 2017",true
Cherry Tomato,"Monday, 18 September 2017",true
Starfruit,"Monday, 18 September 2017",true
Champignon Mushroom,"Monday, 18 September 2017",true
Starfruit,"Wednesday, 20 September 2017",true
Celery,"Monday, 18 September 2017",true
Keffir Lime,"Monday, 18 September 2017",true
Champignon Mushroom,"Monday, 18 September 2017",true
Cabbage,"Monday, 18 September 2017",true
Celery,"Monday, 18 September 2017",true
Mint,"Monday, 18 September 2017",true
Kecombrang,"Monday, 18 September 2017",true
Purple Cabbage,"Monday, 18 September 2017",true
Champignon Mushroom,"Monday, 18 September 2017",true
Champignon Mushroom,"Monday, 18 September 2017",true
Mint,"Monday, 18 September 2017",true
Oyong,"Saturday, 23 September 2017",true
Champignon Mushroom,"Monday, 18 September 2017",true
Mint,"Monday, 18 September 2017",true
Momotaro Tomato,"Tuesday, 19 September 2017",true
Cherry Tomato,"Monday, 18 September 2017",true
Cherry Tomato,"Monday, 18 September 2017",true
Champignon Mushroom,"Monday, 18 September 2017",true
Coriander,"Monday, 25 September 2017",true
Green Spinach,"Tuesday, 19 September 2017",true
Baby Corn,"Wednesday, 20 September 2017",true
Basil,"Wednesday, 20 September 2017",true
Basil,"Wednesday, 20 September 2017",true
Green Spinach,"Wednesday, 20 September 2017",true
Ambarella,"Wednesday, 20 September 2017",true
Baby Corn,"Wednesday, 20 September 2017",true
Orange Malang,"Wednesday, 20 September 2017",true
Starfruit,"Wednesday, 20 September 2017",true
Baby Watermelon,"Wednesday, 20 September 2017",true
Starfruit,"Wednesday, 20 September 2017",true
Jicama,"Wednesday, 20 September 2017",true
Starfruit,"Wednesday, 20 September 2017",true
Keffir Lime,"Wednesday, 20 September 2017",true
Potatoes,"Wednesday, 20 September 2017",true
Mint,"Wednesday, 20 September 2017",true
Ambarella,"Wednesday, 20 September 2017",true
Jicama,"Wednesday, 20 September 2017",true
Starfruit,"Wednesday, 20 September 2017",true
Keffir Lime,"Wednesday, 20 September 2017",true
Basil,"Wednesday, 20 September 2017",true
Coriander,"Wednesday, 20 September 2017",true
Japanese Cucumber,"Wednesday, 20 September 2017",true
Italian Parsley,"Saturday, 23 September 2017",true
Baby Romaine Lettuce,"Friday, 22 September 2017",true
Oyong,"Friday, 22 September 2017",true
Rockets,"Friday, 22 September 2017",true
Batik Spinach,"Saturday, 23 September 2017",true
Orange Lemon,"Friday, 22 September 2017",true
Cauliflower,"Saturday, 23 September 2017",true
Rockets,"Friday, 22 September 2017",true
Flores Forrest Honey,"Wednesday, 27 September 2017",true
Orange Lemon,"Friday, 22 September 2017",true
Cauliflower,"Saturday, 23 September 2017",true
Batik Spinach,"Saturday, 23 September 2017",true
Edamame,"Saturday, 23 September 2017",true
Batik Spinach,"Saturday, 23 September 2017",true
Mango,"Saturday, 23 September 2017",true
Oyong,"Saturday, 23 September 2017",true
Red Spinach,"Saturday, 23 September 2017",true
Batik Spinach,"Saturday, 23 September 2017",true
Oyong,"Saturday, 23 September 2017",true
Flores Forrest Honey,"Monday, 25 September 2017",true
Coconut Cooking Oil,"Monday, 25 September 2017",true
Flores Forrest Honey,"Monday, 25 September 2017",true
Batik Spinach,"Monday, 25 September 2017",true
Coriander,"Monday, 25 September 2017",true
Coconut Water Jelly,"Wednesday, 27 September 2017",true
Coriander,"Monday, 25 September 2017",true
Kecombrang,"Monday, 25 September 2017",true
Green Spinach,"Monday, 25 September 2017",true
Batik Spinach,"Monday, 25 September 2017",true
Batik Spinach,"Monday, 25 September 2017",true
Coriander,"Tuesday, 26 September 2017",true
Coriander,"Monday, 25 September 2017",true
Mango,"Tuesday, 26 September 2017",true
Champignon Mushroom,"Tuesday, 26 September 2017",true
Momotaro Tomato,"Tuesday, 26 September 2017",true
Champignon Mushroom,"Tuesday, 26 September 2017",true
Italian Parsley,"Tuesday, 26 September 2017",true
Champignon Mushroom,"Tuesday, 26 September 2017",true
Soy Milk,"Wednesday, 27 September 2017",true
Onion,"Wednesday, 27 September 2017",true
Baby Corn,"Wednesday, 27 September 2017",true
Okra Merah,"Wednesday, 27 September 2017",true
Italian Parsley,"Wednesday, 27 September 2017",true
Baby Corn,"Wednesday, 27 September 2017",true
Jicama,"Wednesday, 27 September 2017",true
Baby Corn,"Wednesday, 27 September 2017",true
Green Tomato,"Wednesday, 27 September 2017",true
Horenzo,"Wednesday, 27 September 2017",true
Onion,"Wednesday, 27 September 2017",true
Green Tomato,"Wednesday, 27 September 2017",true
Onion,"Wednesday, 27 September 2017",true
Onion,"Wednesday, 27 September 2017",true
Italian Parsley,"Wednesday, 27 September 2017",true
Baby Corn,"Wednesday, 27 September 2017",true
